Date,Open,High,Low,Close,Adj Close,Volume
2015-11-24,42.040001,43.459999,41.860001,42.869999,42.869999,430304
2015-11-25,42.689999,43.250000,41.720001,43.040001,43.040001,383158
2015-11-27,43.250000,43.299999,41.669998,41.709999,41.709999,316475
2015-11-29,null,null,null,null,null,null
2015-11-30,41.770000,42.610001,41.500000,41.650002,41.650002,369509
2015-12-01,41.730000,42.230000,41.169998,41.849998,41.849998,415537
2015-12-02,41.689999,41.970001,39.840000,39.939999,39.939999,545289
2015-12-03,40.150002,41.779999,40.070000,41.080002,41.080002,496884
2015-12-04,41.310001,42.000000,39.599998,39.970001,39.970001,510758
2015-12-06,null,null,null,null,null,null
2015-12-07,40.099998,40.150002,37.500000,37.650002,37.650002,635413
2015-12-08,37.680000,38.580002,36.639999,37.509998,37.509998,767184
2015-12-09,37.860001,38.990002,36.869999,37.160000,37.160000,646166
2015-12-10,37.270000,37.540001,36.380001,36.759998,36.759998,513940
2015-12-11,36.630001,36.840000,35.160000,35.619999,35.619999,505406
2015-12-13,null,null,null,null,null,null
2015-12-14,35.400002,36.700001,34.529999,36.310001,36.310001,550476
2015-12-15,36.320000,37.880001,36.029999,37.349998,37.349998,474159
2015-12-16,36.790001,37.349998,35.290001,35.520000,35.520000,402967
2015-12-17,35.799999,35.840000,34.630001,34.950001,34.950001,196227
2015-12-18,34.869999,35.570000,34.290001,34.730000,34.730000,116038
2015-12-20,null,null,null,null,null,null
2015-12-21,34.580002,34.860001,33.980000,34.740002,34.740002,298080
2015-12-22,35.799999,36.540001,35.660000,36.139999,36.139999,302263
2015-12-23,36.470001,37.950001,36.279999,37.500000,37.500000,374658
2015-12-24,37.860001,38.279999,37.380001,38.099998,38.099998,205873
2015-12-27,null,null,null,null,null,null
2015-12-28,38.000000,38.090000,36.599998,36.810001,36.810001,220644
2015-12-29,36.700001,37.939999,36.660000,37.869999,37.869999,241945
2015-12-30,37.360001,37.400002,36.400002,36.599998,36.599998,267912
2015-12-31,36.810001,37.790001,36.220001,37.040001,37.040001,283623
2016-01-03,null,null,null,null,null,null
2016-01-04,37.599998,38.389999,36.330002,36.759998,36.759998,431985
2016-01-05,36.900002,37.099998,35.740002,35.970001,35.970001,410131
2016-01-06,36.180000,36.389999,33.770000,33.970001,33.970001,563811
2016-01-07,34.090000,34.259998,32.099998,33.270000,33.270000,617409
2016-01-08,33.299999,34.340000,32.639999,33.160000,33.160000,596496
2016-01-10,null,null,null,null,null,null
2016-01-11,32.939999,33.200001,30.879999,31.410000,31.410000,648640
2016-01-12,31.110001,32.209999,29.930000,30.440001,30.440001,627218
2016-01-13,30.540001,31.709999,30.100000,30.480000,30.480000,637903
2016-01-14,30.600000,31.770000,30.280001,31.200001,31.200001,537906
2016-01-15,31.180000,31.180000,29.129999,29.420000,29.420000,329094
2016-01-17,null,null,null,null,null,null
2016-01-18,null,null,null,null,null,null
2016-01-19,29.200001,30.209999,28.209999,28.459999,28.459999,188026
2016-01-20,28.330000,28.580000,26.190001,26.549999,26.549999,690039
2016-01-21,28.350000,30.250000,27.870001,29.530001,29.530001,694040
2016-01-22,29.840000,32.349998,29.530001,32.189999,32.189999,636573
2016-01-24,null,null,null,null,null,null
2016-01-25,32.049999,32.740002,29.680000,30.340000,30.340000,606892
2016-01-26,29.809999,32.410000,29.250000,31.450001,31.450001,642432
2016-01-27,30.549999,32.840000,30.139999,32.299999,32.299999,738551
2016-01-28,32.189999,34.820000,31.740000,33.220001,33.220001,833378
2016-01-29,33.700001,34.400002,32.650002,33.619999,33.619999,618110
2016-01-31,null,null,null,null,null,null
2016-02-01,33.830002,34.180000,31.290001,31.620001,31.620001,595612
2016-02-02,31.370001,31.530001,29.570000,29.879999,29.879999,602564
2016-02-03,29.750000,32.750000,29.400000,32.279999,32.279999,811699
2016-02-04,32.709999,33.599998,31.530001,31.719999,31.719999,696721
2016-02-05,31.639999,32.450001,30.629999,30.889999,30.889999,616531
2016-02-07,null,null,null,null,null,null
2016-02-08,30.969999,31.379999,29.570000,29.690001,29.690001,603646
2016-02-09,30.170000,30.610001,27.740000,27.940001,27.940001,738219
2016-02-10,28.360001,29.219999,27.240000,27.450001,27.450001,781280
2016-02-11,27.340000,27.480000,26.049999,26.209999,26.209999,795965
2016-02-12,27.299999,29.660000,26.950001,29.440001,29.440001,675157
2016-02-14,null,null,null,null,null,null
2016-02-15,null,null,null,null,null,null
2016-02-16,29.080000,31.530001,28.700001,29.040001,29.040001,651956
2016-02-17,29.139999,31.490000,28.730000,30.660000,30.660000,578639
2016-02-18,31.350000,31.980000,30.270000,30.770000,30.770000,225497
2016-02-19,30.600000,30.730000,29.049999,29.639999,29.639999,103202
2016-02-21,null,null,null,null,null,null
2016-02-22,29.719999,32.049999,29.480000,31.480000,31.480000,521016
2016-02-23,33.340000,33.529999,31.219999,31.870001,31.870001,539379
2016-02-24,31.280001,32.400002,30.559999,32.150002,32.150002,652245
2016-02-25,32.189999,33.490002,31.070000,33.070000,33.070000,611874
2016-02-26,33.040001,34.689999,32.639999,32.779999,32.779999,646294
2016-02-28,null,null,null,null,null,null
2016-02-29,32.720001,33.980000,32.320000,33.750000,33.750000,512468
2016-03-01,33.900002,34.759998,33.369999,34.400002,34.400002,566226
2016-03-02,33.889999,35.169998,33.549999,34.660000,34.660000,597834
2016-03-03,34.730000,35.320000,34.189999,34.570000,34.570000,512962
2016-03-04,34.660000,36.340000,34.400002,35.919998,35.919998,578290
2016-03-06,null,null,null,null,null,null
2016-03-07,36.200001,38.110001,36.090000,37.900002,37.900002,709870
2016-03-08,37.939999,38.389999,36.119999,36.500000,36.500000,706933
2016-03-09,36.360001,38.509998,36.240002,38.290001,38.290001,740632
2016-03-10,38.169998,38.480000,37.209999,37.840000,37.840000,701435
2016-03-11,37.990002,39.020000,37.919998,38.500000,38.500000,564791
2016-03-13,null,null,null,null,null,null
2016-03-14,38.169998,38.770000,36.680000,37.180000,37.180000,489938
2016-03-15,37.369999,37.400002,35.959999,36.340000,36.340000,446100
2016-03-16,36.740002,38.630001,36.610001,38.459999,38.459999,494174
2016-03-17,38.590000,40.360001,38.470001,40.200001,40.200001,298013
2016-03-18,40.250000,41.200001,39.150002,39.439999,39.439999,130151
2016-03-20,null,null,null,null,null,null
2016-03-21,39.060001,40.299999,38.610001,39.910000,39.910000,479337
2016-03-22,41.590000,41.900002,40.770000,41.450001,41.450001,463693
2016-03-23,41.189999,41.340000,39.669998,39.790001,39.790001,492003
2016-03-24,39.730000,39.770000,38.330002,39.459999,39.459999,495168
2016-03-27,null,null,null,null,null,null
2016-03-28,39.549999,40.139999,38.860001,39.389999,39.389999,299775
2016-03-29,39.320000,39.480000,37.910000,38.279999,38.279999,488032
2016-03-30,38.520000,39.849998,38.139999,38.320000,38.320000,542469
2016-03-31,38.299999,39.040001,37.570000,38.340000,38.340000,532152
2016-04-01,38.139999,38.560001,36.630001,36.790001,36.790001,547190
2016-04-03,null,null,null,null,null,null
2016-04-04,36.610001,37.209999,35.459999,35.700001,35.700001,549477
2016-04-05,35.500000,36.580002,35.240002,35.889999,35.889999,485543
2016-04-06,36.520000,37.900002,36.430000,37.750000,37.750000,751048
2016-04-07,37.759998,38.299999,36.689999,37.259998,37.259998,626749
2016-04-08,37.520000,39.840000,37.450001,39.720001,39.720001,817230
2016-04-10,null,null,null,null,null,null
2016-04-11,39.720001,40.750000,39.250000,40.360001,40.360001,679351
2016-04-12,40.349998,42.250000,40.090000,42.169998,42.169998,796837
2016-04-13,41.630001,42.419998,41.240002,41.759998,41.759998,730437
2016-04-14,41.540001,42.160000,40.840000,41.500000,41.500000,488614
2016-04-15,41.430000,41.730000,39.980000,40.360001,40.360001,520146
2016-04-17,null,null,null,null,null,null
2016-04-18,38.750000,40.240002,37.610001,39.779999,39.779999,342463
2016-04-19,40.040001,41.529999,39.580002,41.080002,41.080002,101734
2016-04-20,40.799999,42.910000,39.849998,42.630001,42.630001,796240
2016-04-21,43.970001,44.490002,43.049999,43.180000,43.180000,671103
2016-04-22,43.419998,44.450001,43.110001,43.730000,43.730000,575107
2016-04-24,null,null,null,null,null,null
2016-04-25,43.750000,44.040001,42.580002,42.639999,42.639999,606383
2016-04-26,42.959999,44.830002,42.500000,44.040001,44.040001,564392
2016-04-27,44.639999,45.619999,43.770000,45.330002,45.330002,648028
2016-04-28,45.299999,46.139999,44.939999,46.029999,46.029999,487412
2016-04-29,45.900002,46.779999,45.240002,45.919998,45.919998,598439
2016-05-01,null,null,null,null,null,null
2016-05-02,45.900002,46.150002,44.540001,44.779999,44.779999,464027
2016-05-03,44.919998,45.349998,43.320000,43.650002,43.650002,625551
2016-05-04,43.849998,44.880001,43.220001,43.779999,43.779999,711125
2016-05-05,44.040001,46.070000,43.959999,44.320000,44.320000,746159
2016-05-06,44.520000,45.340000,43.540001,44.660000,44.660000,695306
2016-05-08,null,null,null,null,null,null
2016-05-09,45.000000,45.939999,43.240002,43.439999,43.439999,767568
2016-05-10,43.250000,44.790001,43.029999,44.660000,44.660000,709415
2016-05-11,44.599998,46.360001,43.959999,46.230000,46.230000,869957
2016-05-12,46.000000,47.020000,45.610001,46.700001,46.700001,715102
2016-05-13,46.410000,46.490002,45.750000,46.209999,46.209999,519363
2016-05-15,null,null,null,null,null,null
2016-05-16,46.279999,47.980000,46.150002,47.720001,47.720001,550863
2016-05-17,47.900002,48.759998,47.529999,48.310001,48.310001,470440
2016-05-18,48.529999,48.950001,47.750000,48.189999,48.189999,343184
2016-05-19,47.869999,48.279999,46.730000,48.160000,48.160000,108816
2016-05-20,48.200001,48.790001,47.439999,47.750000,47.750000,538047
2016-05-22,null,null,null,null,null,null
2016-05-23,48.459999,48.500000,47.400002,48.080002,48.080002,475453
2016-05-24,48.080002,49.270000,47.639999,48.619999,48.619999,475965
2016-05-25,49.090000,49.750000,48.650002,49.560001,49.560001,550501
2016-05-26,49.700001,50.209999,49.220001,49.480000,49.480000,488465
2016-05-27,49.310001,49.599998,48.689999,49.330002,49.330002,406386
2016-05-29,null,null,null,null,null,null
2016-05-31,49.540001,50.099998,48.810001,49.099998,49.099998,476988
2016-06-01,48.820000,49.250000,47.750000,49.009998,49.009998,568839
2016-06-02,48.900002,49.470001,47.970001,49.169998,49.169998,564846
2016-06-03,49.040001,49.410000,48.330002,48.619999,48.619999,481034
2016-06-05,null,null,null,null,null,null
2016-06-06,48.880001,49.900002,48.709999,49.689999,49.689999,450472
2016-06-07,49.709999,50.529999,49.439999,50.360001,50.360001,542254
2016-06-08,50.410000,51.619999,50.320000,51.230000,51.230000,656416
2016-06-09,51.450001,51.669998,50.230000,50.560001,50.560001,560723
2016-06-10,50.470001,50.730000,48.799999,49.070000,49.070000,596119
2016-06-12,null,null,null,null,null,null
2016-06-13,48.849998,49.279999,48.160000,48.880001,48.880001,506036
2016-06-14,48.520000,48.689999,47.840000,48.490002,48.490002,456144
2016-06-15,47.900002,48.720001,47.279999,48.009998,48.009998,527870
2016-06-16,47.450001,47.750000,45.910000,46.209999,46.209999,507910
2016-06-17,45.990002,48.290001,45.830002,47.980000,47.980000,226653
2016-06-19,null,null,null,null,null,null
2016-06-20,48.290001,49.419998,48.139999,49.369999,49.369999,98293
2016-06-21,49.139999,49.320000,48.160000,48.849998,48.849998,475407
2016-06-22,50.220001,50.540001,48.400002,49.130001,49.130001,569939
2016-06-23,49.080002,50.230000,49.080002,50.110001,50.110001,401885
2016-06-24,50.299999,50.450001,46.700001,47.639999,47.639999,649446
2016-06-26,null,null,null,null,null,null
2016-06-27,47.810001,47.959999,45.830002,46.330002,46.330002,504613
2016-06-28,46.590000,48.180000,46.540001,47.849998,47.849998,498851
2016-06-29,48.060001,50.000000,47.980000,49.880001,49.880001,511476
2016-06-30,49.549999,49.619999,48.169998,48.330002,48.330002,508736
2016-07-01,48.380001,49.299999,47.900002,48.990002,48.990002,405187
2016-07-03,null,null,null,null,null,null
2016-07-05,49.110001,49.349998,46.330002,46.599998,46.599998,609194
2016-07-06,46.830002,47.950001,45.919998,47.430000,47.430000,607663
2016-07-07,47.880001,48.250000,44.869999,45.139999,45.139999,710893
2016-07-08,45.189999,45.970001,44.770000,45.410000,45.410000,583078
2016-07-10,null,null,null,null,null,null
2016-07-11,45.070000,45.770000,44.419998,44.759998,44.759998,533657
2016-07-12,44.580002,46.930000,44.509998,46.799999,46.799999,658257
2016-07-13,46.580002,46.709999,44.560001,44.750000,44.750000,686245
2016-07-14,45.139999,45.799999,44.950001,45.680000,45.680000,573761
2016-07-15,45.520000,46.330002,45.049999,45.950001,45.950001,430256
2016-07-17,null,null,null,null,null,null
2016-07-18,46.119999,46.139999,44.860001,45.240002,45.240002,211393
2016-07-19,45.230000,45.669998,44.529999,44.650002,44.650002,128127
2016-07-20,44.590000,45.250000,43.689999,44.939999,44.939999,541014
2016-07-21,45.650002,46.090000,44.520000,44.750000,44.750000,432972
2016-07-22,44.599998,44.970001,43.740002,44.189999,44.189999,428407
2016-07-24,null,null,null,null,null,null
2016-07-25,44.200001,44.369999,42.970001,43.130001,43.130001,389837
2016-07-26,43.070000,43.389999,42.360001,42.919998,42.919998,461324
2016-07-27,42.660000,43.200001,41.680000,41.919998,41.919998,537390
2016-07-28,41.930000,42.220001,41.040001,41.139999,41.139999,447913
2016-07-29,41.119999,41.669998,40.570000,41.599998,41.599998,478763
2016-07-31,null,null,null,null,null,null
2016-08-01,41.349998,41.880001,39.820000,40.060001,40.060001,533020
2016-08-02,40.080002,40.910000,39.259998,39.509998,39.509998,534512
2016-08-03,39.700001,41.200001,39.189999,40.830002,40.830002,655186
2016-08-04,41.160000,42.080002,40.430000,41.930000,41.930000,598836
2016-08-05,41.840000,42.099998,41.060001,41.799999,41.799999,550189
2016-08-07,null,null,null,null,null,null
2016-08-08,41.990002,43.389999,41.810001,43.020000,43.020000,562530
2016-08-09,42.830002,43.520000,42.470001,42.770000,42.770000,624703
2016-08-10,42.740002,43.389999,41.419998,41.709999,41.709999,676148
2016-08-11,41.480000,43.860001,41.099998,43.490002,43.490002,682235
2016-08-12,43.459999,44.779999,43.310001,44.490002,44.490002,536081
2016-08-14,null,null,null,null,null,null
2016-08-15,44.740002,45.930000,44.380001,45.740002,45.740002,522526
2016-08-16,45.590000,46.730000,45.340000,46.580002,46.580002,550440
2016-08-17,46.369999,46.950001,45.840000,46.790001,46.790001,563354
2016-08-18,46.900002,48.380001,46.630001,48.220001,48.220001,229277
2016-08-19,48.330002,48.750000,47.930000,48.520000,48.520000,162438
2016-08-21,null,null,null,null,null,null
2016-08-22,48.400002,48.400002,46.750000,47.049999,47.049999,515256
2016-08-23,47.389999,48.320000,46.590000,48.099998,48.099998,623904
2016-08-24,47.590000,47.740002,46.450001,46.770000,46.770000,603495
2016-08-25,46.799999,47.459999,46.419998,47.330002,47.330002,458816
2016-08-26,47.369999,48.459999,46.939999,47.639999,47.639999,558344
2016-08-28,null,null,null,null,null,null
2016-08-29,47.220001,47.279999,46.619999,46.980000,46.980000,309254
2016-08-30,46.980000,47.490002,46.209999,46.349998,46.349998,464449
2016-08-31,46.240002,46.410000,44.509998,44.700001,44.700001,549007
2016-09-01,44.849998,45.080002,43.000000,43.160000,43.160000,605003
2016-09-02,43.549999,44.669998,43.160000,44.439999,44.439999,576915
2016-09-04,null,null,null,null,null,null
2016-09-06,44.150002,46.529999,43.840000,44.830002,44.830002,932145
2016-09-07,44.849998,46.169998,44.549999,45.500000,45.500000,572884
2016-09-08,46.119999,47.750000,45.770000,47.619999,47.619999,761943
2016-09-09,47.360001,47.360001,45.560001,45.880001,45.880001,688191
2016-09-11,null,null,null,null,null,null
2016-09-12,45.570000,46.509998,44.720001,46.290001,46.290001,745016
2016-09-13,46.060001,46.130001,44.770000,44.900002,44.900002,657775
2016-09-14,45.000000,45.330002,43.419998,43.580002,43.580002,705861
2016-09-15,43.700001,44.340000,43.259998,43.910000,43.910000,537185
2016-09-16,43.709999,43.750000,42.740002,43.029999,43.029999,231191
2016-09-18,null,null,null,null,null,null
2016-09-19,43.180000,44.150002,43.119999,43.299999,43.299999,129857
2016-09-20,43.130001,44.049999,42.549999,43.439999,43.439999,694130
2016-09-21,44.500000,45.650002,44.500000,45.340000,45.340000,585987
2016-09-22,45.619999,46.520000,45.520000,46.320000,46.320000,521680
2016-09-23,46.070000,46.549999,44.220001,44.480000,44.480000,718395
2016-09-25,null,null,null,null,null,null
2016-09-26,44.619999,46.200001,44.430000,45.930000,45.930000,527119
2016-09-27,45.619999,45.959999,44.189999,44.669998,44.669998,630757
2016-09-28,44.959999,47.450001,44.349998,47.049999,47.049999,1008434
2016-09-29,47.200001,48.320000,46.599998,47.830002,47.830002,702649
2016-09-30,47.759998,48.299999,47.040001,48.240002,48.240002,496515
2016-10-02,null,null,null,null,null,null
2016-10-03,48.040001,49.020000,47.779999,48.810001,48.810001,458021
2016-10-04,48.650002,49.259998,48.259998,48.689999,48.689999,513710
2016-10-05,49.259998,49.970001,49.099998,49.830002,49.830002,520070
2016-10-06,49.650002,50.630001,49.330002,50.439999,50.439999,547915
2016-10-07,50.590000,50.740002,49.400002,49.810001,49.810001,618809
2016-10-09,null,null,null,null,null,null
2016-10-11,51.099998,51.540001,50.389999,50.790001,50.790001,765608
2016-10-12,50.840000,51.169998,49.889999,50.180000,50.180000,533884
2016-10-13,50.000000,50.590000,49.360001,50.439999,50.439999,740676
2016-10-14,50.580002,51.139999,49.900002,50.349998,50.349998,519431
2016-10-16,null,null,null,null,null,null
2016-10-17,50.230000,50.580002,49.470001,49.939999,49.939999,418723
2016-10-18,50.040001,50.779999,49.759998,50.290001,50.290001,192803
2016-10-19,50.770000,51.930000,50.689999,51.599998,51.599998,132427
2016-10-20,51.400002,51.580002,50.250000,50.430000,50.430000,548947
2016-10-21,50.660000,51.020000,50.209999,50.849998,50.849998,551300
2016-10-23,null,null,null,null,null,null
2016-10-24,50.849998,50.980000,49.619999,50.520000,50.520000,623398
2016-10-25,50.490002,50.930000,49.270000,49.959999,49.959999,553778
2016-10-26,49.310001,50.099998,48.869999,49.180000,49.180000,679320
2016-10-27,49.220001,50.060001,49.000000,49.720001,49.720001,543173
2016-10-28,49.610001,49.810001,48.419998,48.700001,48.700001,550081
2016-10-30,null,null,null,null,null,null
2016-10-31,48.250000,48.740002,46.630001,46.860001,46.860001,649237
2016-11-01,46.770000,47.349998,46.200001,46.669998,46.669998,834989
2016-11-02,46.320000,46.470001,44.959999,45.340000,45.340000,674322
2016-11-03,45.480000,45.900002,44.369999,44.660000,44.660000,540439
2016-11-04,44.630001,44.869999,43.570000,44.070000,44.070000,736685
2016-11-06,null,null,null,null,null,null
2016-11-07,44.450001,45.009998,44.110001,44.889999,44.889999,605733
2016-11-08,44.970001,45.389999,44.410000,44.980000,44.980000,669639
2016-11-09,44.820000,45.950001,43.070000,45.270000,45.270000,946512
2016-11-10,45.310001,45.639999,44.250000,44.660000,44.660000,686338
2016-11-13,null,null,null,null,null,null
2016-11-14,43.200001,43.810001,42.200001,43.320000,43.320000,704766
2016-11-15,43.759998,46.090000,43.549999,45.810001,45.810001,706177
2016-11-16,45.770000,46.410000,45.029999,45.570000,45.570000,658169
2016-11-17,45.369999,46.580002,44.880001,45.419998,45.419998,284874
2016-11-18,44.930000,45.770000,44.549999,45.689999,45.689999,155651
2016-11-20,null,null,null,null,null,null
2016-11-21,45.830002,47.799999,45.770000,47.490002,47.490002,665326
2016-11-22,48.369999,49.200001,47.169998,48.029999,48.029999,826208
2016-11-23,47.939999,48.430000,47.400002,47.959999,47.959999,556861
2016-11-25,47.970001,48.259998,45.880001,46.060001,46.060001,465977
2016-11-27,null,null,null,null,null,null
2016-11-28,45.430000,47.650002,45.139999,47.080002,47.080002,734381
2016-11-29,46.880001,46.980000,44.820000,45.230000,45.230000,732818
2016-11-30,45.240002,49.900002,45.220001,49.439999,49.439999,1311000
2016-12-01,49.070000,51.799999,48.980000,51.060001,51.060001,974805
2016-12-02,51.009998,51.730000,50.180000,51.680000,51.680000,667099
2016-12-04,null,null,null,null,null,null
2016-12-05,51.459999,52.419998,50.930000,51.790001,51.790001,600782
2016-12-06,50.970001,51.599998,50.279999,50.930000,50.930000,642746
2016-12-07,50.930000,51.200001,49.720001,49.770000,49.770000,816879
2016-12-08,49.880001,50.980000,49.610001,50.840000,50.840000,780062
2016-12-09,50.919998,51.660000,50.860001,51.500000,51.500000,652040
2016-12-11,null,null,null,null,null,null
2016-12-12,52.580002,54.509998,52.180000,52.830002,52.830002,847025
2016-12-13,52.509998,53.410000,52.349998,52.980000,52.980000,638396
2016-12-14,52.450001,52.779999,50.669998,51.040001,51.040001,677957
2016-12-15,50.790001,51.480000,49.950001,50.900002,50.900002,551759
2016-12-16,51.099998,52.080002,50.500000,51.900002,51.900002,252567
2016-12-18,null,null,null,null,null,null
2016-12-19,52.150002,52.520000,51.509998,52.119999,52.119999,129990
2016-12-20,52.110001,52.700001,51.849998,52.230000,52.230000,416592
2016-12-21,53.560001,53.790001,52.320000,52.490002,52.490002,471993
2016-12-22,52.520000,53.189999,52.080002,52.950001,52.950001,393487
2016-12-23,52.680000,53.279999,52.259998,53.020000,53.020000,285166
2016-12-25,null,null,null,null,null,null
2016-12-27,53.290001,54.099998,53.029999,53.900002,53.900002,277306
2016-12-28,53.930000,54.369999,53.560001,54.060001,54.060001,322535
2016-12-29,53.660000,54.209999,53.459999,53.770000,53.770000,360194
2016-12-30,53.869999,54.090000,53.410000,53.720001,53.720001,271094
2017-01-01,null,null,null,null,null,null
2017-01-03,54.200001,55.240002,52.110001,52.330002,52.330002,727793
2017-01-04,52.490002,53.430000,52.150002,53.259998,53.259998,512641
2017-01-05,53.389999,54.119999,52.790001,53.759998,53.759998,517362
2017-01-06,53.730000,54.320000,53.320000,53.990002,53.990002,528333
2017-01-08,null,null,null,null,null,null
2017-01-09,53.750000,53.830002,51.759998,51.959999,51.959999,564893
2017-01-10,51.830002,52.369999,50.709999,50.820000,50.820000,632573
2017-01-11,50.810001,52.779999,50.750000,52.250000,52.250000,815846
2017-01-12,52.369999,53.500000,52.119999,53.009998,53.009998,660703
2017-01-13,53.049999,53.169998,52.270000,52.369999,52.369999,477986
2017-01-15,null,null,null,null,null,null
2017-01-17,52.549999,53.520000,52.119999,52.480000,52.480000,606023
2017-01-18,52.520000,52.790001,50.910000,51.080002,51.080002,236238
2017-01-19,51.389999,51.869999,51.020000,51.369999,51.369999,122593
2017-01-20,51.450001,52.900002,51.389999,52.419998,52.419998,567231
2017-01-22,null,null,null,null,null,null
2017-01-23,53.330002,53.470001,52.209999,52.750000,52.750000,455333
2017-01-24,52.860001,53.560001,52.669998,53.180000,53.180000,520285
2017-01-25,52.950001,53.470001,52.560001,52.750000,52.750000,589709
2017-01-26,52.959999,54.060001,52.790001,53.779999,53.779999,578065
2017-01-27,53.740002,54.080002,52.580002,53.169998,53.169998,495556
2017-01-29,null,null,null,null,null,null
2017-01-30,53.150002,53.459999,52.410000,52.630001,52.630001,486309
2017-01-31,52.599998,53.560001,52.240002,52.810001,52.810001,586676
2017-02-01,52.759998,53.910000,52.639999,53.880001,53.880001,577243
2017-02-02,53.570000,54.340000,53.349998,53.540001,53.540001,492553
2017-02-03,53.680000,54.220001,53.400002,53.830002,53.830002,462616
2017-02-05,null,null,null,null,null,null
2017-02-06,53.810001,54.130001,52.910000,53.009998,53.009998,425085
2017-02-07,53.139999,53.240002,51.630001,52.169998,52.169998,624057
2017-02-08,51.639999,52.669998,51.220001,52.340000,52.340000,767379
2017-02-09,52.369999,53.209999,52.369999,53.000000,53.000000,610196
2017-02-10,53.150002,54.130001,52.900002,53.860001,53.860001,596449
2017-02-12,null,null,null,null,null,null
2017-02-13,53.799999,53.950001,52.770000,52.930000,52.930000,586034
2017-02-14,52.910000,53.720001,52.860001,53.200001,53.200001,493022
2017-02-15,53.000000,53.509998,52.730000,53.110001,53.110001,463638
2017-02-16,53.009998,53.590000,52.680000,53.360001,53.360001,343363
2017-02-17,53.470001,53.520000,52.880001,53.400002,53.400002,195352
2017-02-19,null,null,null,null,null,null
2017-02-21,53.480000,54.680000,53.349998,54.060001,54.060001,665310
2017-02-22,54.259998,54.599998,53.349998,53.590000,53.590000,499480
2017-02-23,53.910000,54.939999,53.869999,54.450001,54.450001,529880
2017-02-24,54.330002,54.509998,53.759998,53.990002,53.990002,395258
2017-02-26,null,null,null,null,null,null
2017-02-27,54.020000,54.610001,53.939999,54.049999,54.049999,394380
2017-02-28,54.040001,54.230000,53.180000,54.009998,54.009998,593909
2017-03-01,53.950001,54.439999,53.630001,53.830002,53.830002,491289
2017-03-02,53.689999,53.799999,52.540001,52.610001,52.610001,638390
2017-03-03,52.580002,53.389999,52.549999,53.330002,53.330002,436360
2017-03-05,null,null,null,null,null,null
2017-03-06,53.189999,53.560001,52.759998,53.200001,53.200001,503692
2017-03-07,53.169998,53.799999,52.709999,53.139999,53.139999,494677
2017-03-08,52.790001,52.919998,50.049999,50.279999,50.279999,963392
2017-03-09,50.220001,50.840000,48.590000,49.279999,49.279999,1073506
2017-03-10,49.610001,50.110001,48.310001,48.490002,48.490002,796960
2017-03-12,null,null,null,null,null,null
2017-03-13,48.450001,48.680000,47.900002,48.400002,48.400002,601362
2017-03-14,48.450001,48.790001,47.090000,47.720001,47.720001,857711
2017-03-15,48.759998,49.040001,48.160000,48.860001,48.860001,655788
2017-03-16,49.009998,49.619999,48.450001,48.750000,48.750000,516853
2017-03-17,48.790001,49.200001,48.599998,48.779999,48.779999,172340
2017-03-19,null,null,null,null,null,null
2017-03-20,48.700001,48.740002,47.840000,48.220001,48.220001,142258
2017-03-21,47.930000,48.730000,47.230000,47.340000,47.340000,628119
2017-03-22,48.160000,48.320000,47.009998,48.040001,48.040001,680849
2017-03-23,48.150002,48.480000,47.580002,47.700001,47.700001,499878
2017-03-24,47.669998,48.200001,47.540001,47.970001,47.970001,421027
2017-03-26,null,null,null,null,null,null
2017-03-27,48.119999,48.279999,47.080002,47.730000,47.730000,466176
2017-03-28,47.889999,48.740002,47.799999,48.369999,48.369999,502377
2017-03-29,48.470001,49.630001,48.380001,49.509998,49.509998,548615
2017-03-30,49.599998,50.470001,49.270000,50.349998,50.349998,580668
2017-03-31,50.320000,50.849998,49.900002,50.599998,50.599998,527607
2017-04-02,null,null,null,null,null,null
2017-04-03,50.689999,50.830002,50.119999,50.240002,50.240002,440724
2017-04-04,50.240002,51.299999,49.880001,51.029999,51.029999,532054
2017-04-05,51.180000,51.880001,50.740002,51.150002,51.150002,651398
2017-04-06,50.799999,51.820000,50.770000,51.700001,51.700001,473019
2017-04-07,51.700001,52.939999,51.490002,52.240002,52.240002,796437
2017-04-09,null,null,null,null,null,null
2017-04-10,52.310001,53.180000,52.290001,53.080002,53.080002,565439
2017-04-11,53.130001,53.450001,52.700001,53.400002,53.400002,598003
2017-04-12,53.400002,53.759998,52.709999,53.110001,53.110001,629805
2017-04-13,52.849998,53.389999,52.820000,53.180000,53.180000,480835
2017-04-16,null,null,null,null,null,null
2017-04-17,52.970001,53.209999,52.549999,52.650002,52.650002,326340
2017-04-18,52.750000,52.849998,52.099998,52.410000,52.410000,202043
2017-04-19,52.360001,52.650002,50.090000,50.439999,50.439999,133173
2017-04-20,50.630001,50.970001,50.180000,50.270000,50.270000,606263
2017-04-21,50.709999,50.930000,49.200001,49.619999,49.619999,687474
2017-04-23,null,null,null,null,null,null
2017-04-24,49.680000,50.220001,49.029999,49.230000,49.230000,517897
2017-04-25,49.220001,49.830002,48.869999,49.560001,49.560001,587240
2017-04-26,49.360001,50.200001,48.939999,49.619999,49.619999,655717
2017-04-27,49.220001,49.430000,48.200001,48.970001,48.970001,771189
2017-04-28,49.270000,49.759998,48.799999,49.330002,49.330002,633992
2017-04-30,null,null,null,null,null,null
2017-05-01,49.169998,49.320000,48.590000,48.840000,48.840000,364386
2017-05-02,48.779999,49.279999,47.349998,47.660000,47.660000,702375
2017-05-03,48.119999,48.230000,47.299999,47.820000,47.820000,691319
2017-05-04,47.599998,47.750000,45.290001,45.520000,45.520000,943959
2017-05-05,45.509998,46.680000,43.759998,46.220001,46.220001,1021610
2017-05-07,null,null,null,null,null,null
2017-05-08,46.349998,46.980000,45.730000,46.430000,46.430000,785055
2017-05-09,46.490002,46.779999,45.529999,45.880001,45.880001,701944
2017-05-10,46.180000,47.779999,46.009998,47.330002,47.330002,819796
2017-05-11,47.389999,48.220001,47.340000,47.830002,47.830002,661783
2017-05-12,47.810001,48.070000,47.349998,47.840000,47.840000,537490
2017-05-14,null,null,null,null,null,null
2017-05-15,47.849998,49.660000,47.750000,48.849998,48.849998,687153
2017-05-16,48.820000,49.380001,48.169998,48.660000,48.660000,589212
2017-05-17,48.230000,49.500000,48.029999,49.070000,49.070000,650107
2017-05-18,48.930000,49.599998,48.049999,49.349998,49.349998,242754
2017-05-19,49.279999,50.529999,49.279999,50.330002,50.330002,146452
2017-05-21,null,null,null,null,null,null
2017-05-22,50.599998,51.060001,50.439999,50.730000,50.730000,564310
2017-05-23,51.040001,51.790001,50.570000,51.470001,51.470001,584139
2017-05-24,51.439999,51.880001,51.029999,51.360001,51.360001,736341
2017-05-25,51.250000,52.000000,48.450001,48.900002,48.900002,1147389
2017-05-26,48.750000,49.939999,48.180000,49.799999,49.799999,763920
2017-05-28,null,null,null,null,null,null
2017-05-30,49.930000,50.279999,49.029999,49.660000,49.660000,663486
2017-05-31,49.650002,49.709999,47.730000,48.320000,48.320000,779144
2017-06-01,48.630001,49.169998,47.900002,48.360001,48.360001,774478
2017-06-02,48.040001,48.189999,46.740002,47.660000,47.660000,802662
2017-06-04,null,null,null,null,null,null
2017-06-05,47.709999,48.419998,46.860001,47.400002,47.400002,710199
2017-06-06,47.400002,48.400002,46.939999,48.189999,48.189999,825056
2017-06-07,47.980000,48.230000,45.650002,45.720001,45.720001,1182327
2017-06-08,45.849998,46.180000,45.200001,45.639999,45.639999,927695
2017-06-09,45.709999,46.180000,45.270000,45.830002,45.830002,735933
2017-06-11,null,null,null,null,null,null
2017-06-12,45.799999,46.709999,45.660000,46.080002,46.080002,666765
2017-06-13,46.009998,46.570000,45.560001,46.459999,46.459999,783320
2017-06-14,45.939999,46.490002,44.540001,44.730000,44.730000,924408
2017-06-15,44.689999,44.810001,44.220001,44.459999,44.459999,500938
2017-06-16,44.250000,44.939999,44.240002,44.740002,44.740002,191824
2017-06-18,null,null,null,null,null,null
2017-06-19,44.680000,45.060001,44.049999,44.200001,44.200001,123943
2017-06-20,44.110001,44.400002,42.750000,43.230000,43.230000,894104
2017-06-21,43.380001,44.200001,42.049999,42.529999,42.529999,1071747
2017-06-22,42.549999,43.320000,42.259998,42.740002,42.740002,668830
2017-06-23,42.799999,43.200001,42.529999,43.009998,43.009998,690906
2017-06-25,null,null,null,null,null,null
2017-06-26,43.160000,43.650002,42.630001,43.380001,43.380001,661354
2017-06-27,43.490002,44.439999,43.320000,44.240002,44.240002,759115
2017-06-28,43.700001,44.900002,43.669998,44.740002,44.740002,753375
2017-06-29,44.889999,45.450001,44.650002,44.930000,44.930000,768946
2017-06-30,44.889999,46.349998,44.880001,46.040001,46.040001,677408
2017-07-02,null,null,null,null,null,null
2017-07-03,null,null,null,null,null,null
2017-07-05,47.040001,47.320000,44.509998,45.130001,45.130001,1173581
2017-07-06,45.650002,46.529999,45.180000,45.520000,45.520000,969676
2017-07-07,45.349998,45.419998,43.779999,44.230000,44.230000,975914
2017-07-09,null,null,null,null,null,null
2017-07-10,44.349998,44.840000,43.650002,44.400002,44.400002,848570
2017-07-11,44.580002,45.810001,43.830002,45.040001,45.040001,1010691
2017-07-12,45.740002,46.480000,45.110001,45.490002,45.490002,963505
2017-07-13,45.439999,46.279999,44.990002,46.080002,46.080002,748971
2017-07-14,46.080002,46.740002,45.799999,46.540001,46.540001,742895
2017-07-16,null,null,null,null,null,null
2017-07-17,46.680000,46.880001,45.889999,46.020000,46.020000,560633
2017-07-18,45.990002,46.919998,45.810001,46.400002,46.400002,208420
2017-07-19,46.250000,47.259998,46.139999,47.119999,47.119999,140677
2017-07-20,47.090000,47.549999,46.660000,46.790001,46.790001,720621
2017-07-21,46.910000,47.209999,45.540001,45.770000,45.770000,769438
2017-07-23,null,null,null,null,null,null
2017-07-24,45.619999,46.529999,45.400002,46.340000,46.340000,707910
2017-07-25,46.459999,48.660000,46.380001,47.889999,47.889999,885700
2017-07-26,48.509998,48.869999,47.860001,48.750000,48.750000,887864
2017-07-27,48.700001,49.240002,48.250000,49.040001,49.040001,880757
2017-07-28,49.169998,49.810001,48.860001,49.709999,49.709999,771225
2017-07-30,null,null,null,null,null,null
2017-07-31,49.849998,50.410000,49.180000,50.169998,50.169998,781539
2017-08-01,50.209999,50.430000,48.369999,49.160000,49.160000,1008583
2017-08-02,48.799999,49.650002,48.549999,49.590000,49.590000,847722
2017-08-03,49.590000,49.959999,48.779999,49.029999,49.029999,837763
2017-08-04,48.950001,49.639999,48.500000,49.580002,49.580002,745664
2017-08-06,null,null,null,null,null,null
2017-08-07,49.590000,49.730000,48.540001,49.389999,49.389999,831374
2017-08-08,49.310001,49.790001,48.860001,49.169998,49.169998,924240
2017-08-09,49.000000,49.720001,48.900002,49.560001,49.560001,858250
2017-08-10,49.680000,50.220001,48.349998,48.590000,48.590000,1135440
2017-08-11,48.520000,48.980000,47.980000,48.820000,48.820000,804237
2017-08-13,null,null,null,null,null,null
2017-08-14,48.790001,49.160000,47.430000,47.590000,47.590000,763241
2017-08-15,47.490002,47.900002,47.020000,47.549999,47.549999,770358
2017-08-16,47.720001,47.990002,46.669998,46.779999,46.779999,815544
2017-08-17,46.799999,47.189999,46.459999,47.090000,47.090000,608314
2017-08-18,46.930000,48.740002,46.779999,48.509998,48.509998,253069
2017-08-20,null,null,null,null,null,null
2017-08-21,48.720001,48.750000,47.029999,47.369999,47.369999,129192
2017-08-22,47.450001,48.029999,47.200001,47.639999,47.639999,864387
2017-08-23,47.639999,48.500000,47.529999,48.410000,48.410000,701693
2017-08-24,48.360001,48.430000,47.060001,47.430000,47.430000,831358
2017-08-25,47.619999,47.910000,47.389999,47.869999,47.869999,646518
2017-08-27,null,null,null,null,null,null
2017-08-28,47.889999,48.200001,46.150002,46.570000,46.570000,921285
2017-08-29,46.860001,46.959999,45.759998,46.439999,46.439999,895643
2017-08-30,46.310001,46.720001,45.840000,45.959999,45.959999,895643
2017-08-31,45.950001,47.470001,45.580002,47.230000,47.230000,882983
2017-09-01,47.080002,47.349998,46.560001,47.290001,47.290001,915708
2017-09-03,null,null,null,null,null,null
2017-09-05,47.279999,48.980000,47.150002,48.660000,48.660000,742808
2017-09-06,48.590000,49.419998,48.520000,49.160000,49.160000,788963
2017-09-07,49.139999,49.330002,48.630001,49.090000,49.090000,702514
2017-09-08,49.090000,49.259998,47.270000,47.480000,47.480000,843760
2017-09-10,null,null,null,null,null,null
2017-09-11,47.580002,48.270000,47.000000,48.070000,48.070000,774468
2017-09-12,48.119999,48.439999,47.730000,48.230000,48.230000,676040
2017-09-13,48.340000,49.400002,48.119999,49.299999,49.299999,706925
2017-09-14,49.310001,50.500000,49.150002,49.889999,49.889999,709035
2017-09-15,49.720001,50.130001,49.410000,49.889999,49.889999,433597
2017-09-17,null,null,null,null,null,null
2017-09-18,49.849998,50.330002,49.189999,49.910000,49.910000,189605
2017-09-19,49.910000,50.419998,49.330002,49.480000,49.480000,143379
2017-09-20,49.840000,50.650002,49.750000,50.410000,50.410000,754413
2017-09-21,50.720001,50.810001,50.070000,50.549999,50.549999,580569
2017-09-22,50.730000,50.779999,50.290001,50.660000,50.660000,473795
2017-09-24,null,null,null,null,null,null
2017-09-25,50.680000,52.279999,50.389999,52.220001,52.220001,701244
2017-09-26,52.119999,52.430000,51.430000,51.880001,51.880001,709515
2017-09-27,52.090000,52.340000,51.630001,52.139999,52.139999,637035
2017-09-28,52.049999,52.860001,51.220001,51.560001,51.560001,801816
2017-09-29,51.580002,51.770000,51.250000,51.669998,51.669998,551982
2017-10-01,null,null,null,null,null,null
2017-10-02,51.639999,51.709999,50.070000,50.580002,50.580002,600933
2017-10-03,50.590000,50.730000,50.139999,50.419998,50.419998,462735
2017-10-04,50.160000,50.669998,49.759998,49.980000,49.980000,598836
2017-10-05,49.880001,51.220001,49.849998,50.790001,50.790001,654385
2017-10-06,50.750000,50.820000,49.099998,49.290001,49.290001,743114
2017-10-08,null,null,null,null,null,null
2017-10-09,49.250000,49.790001,49.130001,49.580002,49.580002,505079
2017-10-10,49.549999,51.060001,49.540001,50.919998,50.919998,664839
2017-10-11,50.939999,51.419998,50.610001,51.299999,51.299999,651948
2017-10-12,51.000000,51.130001,50.150002,50.599998,50.599998,729273
2017-10-13,50.730000,51.720001,50.700001,51.450001,51.450001,667497
2017-10-15,null,null,null,null,null,null
2017-10-16,51.430000,52.369999,51.349998,51.869999,51.869999,520725
2017-10-17,51.930000,52.250000,51.209999,51.880001,51.880001,471612
2017-10-18,51.939999,52.330002,51.689999,52.040001,52.040001,152620
2017-10-19,52.049999,52.169998,51.070000,51.290001,51.290001,127413
2017-10-20,51.419998,51.730000,50.700001,51.470001,51.470001,674142
2017-10-22,null,null,null,null,null,null
2017-10-23,52.070000,52.299999,51.680000,51.900002,51.900002,583563
2017-10-24,51.889999,52.619999,51.549999,52.470001,52.470001,709553
2017-10-25,52.560001,52.570000,51.889999,52.180000,52.180000,681739
2017-10-26,52.189999,52.860001,51.910000,52.639999,52.639999,594647
2017-10-27,52.799999,54.200001,52.250000,53.900002,53.900002,730915
2017-10-29,null,null,null,null,null,null
2017-10-30,54.160000,54.459999,53.750000,54.150002,54.150002,565043
2017-10-31,54.080002,54.849998,53.930000,54.380001,54.380001,497295
2017-11-01,54.650002,55.220001,53.889999,54.299999,54.299999,671038
2017-11-02,54.279999,54.840000,53.990002,54.540001,54.540001,482846
2017-11-03,54.730000,55.759998,54.400002,55.639999,55.639999,614159
2017-11-05,null,null,null,null,null,null
2017-11-06,55.970001,57.610001,55.660000,57.349998,57.349998,861713
2017-11-07,57.270000,57.689999,56.830002,57.200001,57.200001,750187
2017-11-08,56.959999,57.919998,56.410000,56.810001,56.810001,919147
2017-11-09,56.849998,57.529999,56.689999,57.169998,57.169998,666949
2017-11-10,57.020000,57.349998,56.549999,56.740002,56.740002,541296
2017-11-12,null,null,null,null,null,null
2017-11-13,56.900002,57.150002,56.299999,56.759998,56.759998,631619
2017-11-14,56.720001,56.770000,54.810001,55.700001,55.700001,707338
2017-11-15,55.060001,55.560001,54.880001,55.330002,55.330002,501385
2017-11-16,55.299999,55.619999,54.930000,55.139999,55.139999,213923
2017-11-17,55.250000,56.680000,55.180000,56.549999,56.549999,184944
2017-11-19,null,null,null,null,null,null
2017-11-20,56.689999,56.759998,55.570000,56.090000,56.090000,593241
2017-11-21,56.380001,57.220001,56.320000,56.830002,56.830002,619066
2017-11-22,57.119999,58.150002,57.029999,58.020000,58.020000,837411
2017-11-24,null,null,null,null,null,null
2017-11-26,null,null,null,null,null,null
2017-11-27,58.950001,58.990002,57.549999,58.110001,58.110001,690078
2017-11-28,57.860001,58.110001,57.419998,57.990002,57.990002,546526
2017-11-29,57.730000,58.299999,56.750000,57.299999,57.299999,741564
2017-11-30,57.410000,57.980000,56.820000,57.400002,57.400002,735128
2017-12-01,57.419998,58.880001,57.290001,58.360001,58.360001,685215
2017-12-03,null,null,null,null,null,null
2017-12-04,58.320000,58.340000,57.349998,57.470001,57.470001,529965
2017-12-05,57.480000,57.919998,57.080002,57.619999,57.619999,499245
2017-12-06,57.450001,57.570000,55.869999,55.959999,55.959999,678992
2017-12-07,56.000000,56.779999,55.820000,56.689999,56.689999,557325
2017-12-08,56.650002,57.790001,56.540001,57.360001,57.360001,681599
2017-12-10,null,null,null,null,null,null
2017-12-11,57.250000,58.080002,56.910000,57.990002,57.990002,606724
2017-12-12,58.020000,58.560001,56.849998,57.139999,57.139999,826488
2017-12-13,57.450001,57.830002,56.549999,56.599998,56.599998,658143
2017-12-14,56.700001,57.220001,56.090000,57.040001,57.040001,580571
2017-12-15,57.150002,57.490002,56.939999,57.299999,57.299999,210054
2017-12-17,null,null,null,null,null,null
2017-12-18,57.369999,57.779999,56.820000,57.160000,57.160000,137151
2017-12-19,57.299999,57.639999,57.160000,57.459999,57.459999,420784
2017-12-20,57.660000,58.119999,57.439999,58.090000,58.090000,420844
2017-12-21,58.020000,58.380001,57.630001,58.360001,58.360001,405320
2017-12-22,58.209999,58.500000,57.869999,58.470001,58.470001,324554
2017-12-24,null,null,null,null,null,null
2017-12-26,58.400002,60.009998,58.320000,59.970001,59.970001,437785
2017-12-27,59.790001,59.930000,59.330002,59.639999,59.639999,402396
2017-12-28,59.529999,59.939999,59.439999,59.840000,59.840000,345962
2017-12-29,59.910000,60.509998,59.820000,60.419998,60.419998,464478
2017-12-31,null,null,null,null,null,null
2018-01-02,60.200001,60.740002,60.099998,60.369999,60.369999,510313
2018-01-03,60.389999,61.970001,60.279999,61.630001,61.630001,673859
2018-01-04,61.959999,62.209999,61.590000,62.009998,62.009998,654363
2018-01-05,61.900002,62.040001,61.090000,61.439999,61.439999,563036
2018-01-07,null,null,null,null,null,null
2018-01-08,61.610001,61.970001,61.340000,61.730000,61.730000,616474
2018-01-09,61.919998,63.480000,61.799999,62.959999,62.959999,844720
2018-01-10,63.410000,63.669998,63.090000,63.570000,63.570000,697844
2018-01-11,63.500000,64.769997,63.430000,63.799999,63.799999,876642
2018-01-12,63.570000,64.500000,63.060001,64.300003,64.300003,678727
2018-01-14,null,null,null,null,null,null
2018-01-16,64.430000,64.889999,63.389999,63.730000,63.730000,867771
2018-01-17,63.889999,64.169998,63.310001,63.970001,63.970001,444384
2018-01-18,64.070000,64.349998,63.470001,63.950001,63.950001,204504
2018-01-19,63.740002,63.770000,62.849998,63.369999,63.369999,142711
2018-01-21,null,null,null,null,null,null
2018-01-22,63.610001,64.139999,63.169998,63.490002,63.490002,625662
2018-01-23,63.880001,64.879997,63.700001,64.470001,64.470001,662456
2018-01-24,64.419998,66.050003,64.339996,65.610001,65.610001,887018
2018-01-25,65.879997,66.660004,65.080002,65.510002,65.510002,771758
2018-01-26,65.250000,66.349998,64.910004,66.139999,66.139999,678186
2018-01-28,null,null,null,null,null,null
2018-01-29,66.180000,66.459999,64.980003,65.559998,65.559998,656168
2018-01-30,65.529999,65.559998,63.889999,64.500000,64.500000,688380
2018-01-31,64.029999,64.940002,63.669998,64.730003,64.730003,613258
2018-02-01,64.760002,66.250000,64.629997,65.800003,65.800003,685750
2018-02-02,65.989998,66.300003,64.470001,65.449997,65.449997,857572
2018-02-04,null,null,null,null,null,null
2018-02-05,65.099998,65.400002,63.419998,64.150002,64.150002,891063
2018-02-06,63.430000,64.290001,63.119999,63.389999,63.389999,797814
2018-02-07,63.919998,64.180000,61.250000,61.790001,61.790001,1029408
2018-02-08,61.700001,62.090000,60.270000,61.150002,61.150002,929578
2018-02-09,60.430000,60.770000,58.070000,59.200001,59.200001,933307
2018-02-11,null,null,null,null,null,null
2018-02-12,59.119999,60.830002,59.099998,59.290001,59.290001,736917
2018-02-13,59.349998,59.730000,58.389999,59.189999,59.189999,580600
2018-02-14,58.980000,60.900002,58.200001,60.599998,60.599998,650324
2018-02-15,60.709999,61.639999,59.720001,61.340000,61.340000,340401
2018-02-16,61.450001,61.990002,60.880001,61.680000,61.680000,181179
2018-02-18,null,null,null,null,null,null
2018-02-20,61.630001,62.740002,61.580002,61.900002,61.900002,794481
2018-02-21,61.630001,61.860001,60.919998,61.680000,61.680000,466924
2018-02-22,61.340000,63.090000,60.750000,62.770000,62.770000,592603
2018-02-23,62.599998,63.730000,62.330002,63.549999,63.549999,460597
2018-02-25,null,null,null,null,null,null
2018-02-26,63.599998,64.239998,63.060001,63.910000,63.910000,469853
2018-02-27,64.059998,64.080002,62.639999,63.009998,63.009998,562670
2018-02-28,62.790001,63.439999,61.360001,61.639999,61.639999,768409
2018-03-01,61.549999,61.830002,60.180000,60.990002,60.990002,812505
2018-03-02,61.340000,61.599998,60.130001,61.250000,61.250000,613514
2018-03-04,null,null,null,null,null,null
2018-03-05,61.549999,62.790001,61.099998,62.570000,62.570000,599266
2018-03-06,62.580002,63.279999,62.169998,62.599998,62.599998,634953
2018-03-07,62.299999,62.580002,60.580002,61.150002,61.150002,879119
2018-03-08,61.330002,61.400002,59.950001,60.119999,60.119999,720510
2018-03-09,60.270000,62.180000,60.139999,62.040001,62.040001,659722
2018-03-11,null,null,null,null,null,null
2018-03-12,62.099998,62.330002,60.669998,61.360001,61.360001,537990
2018-03-13,61.369999,61.970001,60.270000,60.709999,60.709999,747738
2018-03-14,60.869999,61.330002,60.110001,60.959999,60.959999,665017
2018-03-15,60.950001,61.540001,60.820000,61.189999,61.189999,430201
2018-03-16,61.189999,62.540001,61.080002,62.340000,62.340000,202493
2018-03-18,null,null,null,null,null,null
2018-03-19,62.230000,62.349998,61.360001,62.060001,62.060001,115962
2018-03-20,62.099998,63.810001,62.080002,63.400002,63.400002,717709
2018-03-21,63.720001,65.550003,63.580002,65.169998,65.169998,763768
2018-03-22,65.500000,65.739998,64.139999,64.300003,64.300003,689172
2018-03-23,64.279999,66.000000,64.110001,65.879997,65.879997,752994
2018-03-25,null,null,null,null,null,null
2018-03-26,65.900002,66.550003,65.080002,65.550003,65.550003,585899
2018-03-27,65.529999,66.410004,64.529999,65.250000,65.250000,670811
2018-03-28,64.699997,65.129997,63.720001,64.379997,64.379997,697678
2018-03-29,64.690002,65.260002,64.160004,64.940002,64.940002,562819
2018-04-01,null,null,null,null,null,null
2018-04-02,64.910004,65.419998,62.799999,63.009998,63.009998,582742
2018-04-03,62.889999,63.860001,62.860001,63.509998,63.509998,527289
2018-04-04,63.590000,63.639999,62.060001,63.369999,63.369999,760596
2018-04-05,63.599998,64.120003,63.070000,63.540001,63.540001,588597
2018-04-06,63.700001,63.790001,61.810001,62.060001,62.060001,753262
2018-04-08,null,null,null,null,null,null
2018-04-09,62.000000,63.610001,61.930000,63.419998,63.419998,655831
2018-04-10,63.299999,65.860001,63.200001,65.510002,65.510002,840280
2018-04-11,65.589996,67.449997,65.150002,66.820000,66.820000,963017
2018-04-12,66.750000,67.330002,66.000000,67.070000,67.070000,687468
2018-04-13,67.180000,67.760002,66.699997,67.389999,67.389999,624203
2018-04-15,null,null,null,null,null,null
2018-04-16,67.239998,67.739998,66.129997,66.220001,66.220001,560076
2018-04-17,66.419998,66.750000,65.559998,66.519997,66.519997,486076
2018-04-18,66.680000,68.910004,66.559998,68.470001,68.470001,221664
2018-04-19,68.750000,69.559998,67.980003,68.290001,68.290001,125993
2018-04-20,68.260002,68.620003,67.500000,68.379997,68.379997,724906
2018-04-22,null,null,null,null,null,null
2018-04-23,68.220001,69.029999,67.139999,68.639999,68.639999,740941
2018-04-24,68.949997,69.379997,67.540001,67.699997,67.699997,832296
2018-04-25,67.750000,68.180000,67.110001,68.050003,68.050003,764049
2018-04-26,68.029999,68.779999,67.709999,68.190002,68.190002,660549
2018-04-27,68.209999,68.360001,67.639999,68.099998,68.099998,542549
2018-04-29,null,null,null,null,null,null
2018-04-30,68.150002,69.339996,67.169998,68.570000,68.570000,755186
2018-05-01,68.559998,68.900002,66.849998,67.250000,67.250000,694771
2018-05-02,67.489998,68.139999,66.919998,67.930000,67.930000,789367
2018-05-03,67.680000,68.599998,67.209999,68.430000,68.430000,691219
2018-05-04,68.500000,69.970001,68.120003,69.720001,69.720001,690876
2018-05-06,null,null,null,null,null,null
2018-05-07,69.849998,70.839996,69.510002,70.730003,70.730003,758916
2018-05-08,70.029999,70.400002,67.629997,69.059998,69.059998,1253566
2018-05-09,70.050003,71.360001,69.849998,71.139999,71.139999,863386
2018-05-10,71.230003,71.889999,70.559998,71.360001,71.360001,749808
2018-05-11,71.449997,71.629997,70.449997,70.699997,70.699997,634145
2018-05-13,null,null,null,null,null,null
2018-05-14,70.540001,71.260002,70.260002,70.959999,70.959999,592826
2018-05-15,71.150002,71.919998,70.419998,71.309998,71.309998,815289
2018-05-16,71.019997,71.589996,70.660004,71.489998,71.489998,574279
2018-05-17,71.559998,72.300003,71.089996,71.489998,71.489998,562639
2018-05-18,71.599998,71.750000,70.989998,71.279999,71.279999,211785
2018-05-20,null,null,null,null,null,null
2018-05-21,71.470001,72.589996,71.250000,72.239998,72.239998,119892
2018-05-22,72.529999,72.830002,71.900002,72.129997,72.129997,723458
2018-05-23,72.110001,72.260002,71.190002,71.839996,71.839996,702791
2018-05-24,71.830002,72.000000,70.519997,70.709999,70.709999,640725
2018-05-25,70.650002,70.800003,67.419998,67.879997,67.879997,955354
2018-05-27,null,null,null,null,null,null
2018-05-29,66.489998,67.349998,65.919998,66.730003,66.730003,1059750
2018-05-30,66.849998,68.669998,66.349998,68.209999,68.209999,726886
2018-05-31,68.239998,68.300003,66.559998,67.040001,67.040001,917563
2018-06-01,67.070000,67.339996,65.510002,65.809998,65.809998,781103
2018-06-03,null,null,null,null,null,null
2018-06-04,65.709999,66.040001,64.570000,64.750000,64.750000,696050
2018-06-05,64.940002,65.570000,64.220001,65.519997,65.519997,714674
2018-06-06,65.510002,65.959999,64.269997,64.730003,64.730003,708829
2018-06-07,65.070000,66.070000,64.809998,65.949997,65.949997,675041
2018-06-08,65.980003,66.239998,65.150002,65.739998,65.739998,571224
2018-06-10,null,null,null,null,null,null
2018-06-11,65.559998,66.349998,64.849998,66.099998,66.099998,558281
2018-06-12,66.050003,66.699997,65.870003,66.360001,66.360001,524411
2018-06-13,66.010002,66.889999,65.519997,66.639999,66.639999,626398
2018-06-14,66.620003,67.160004,66.360001,66.889999,66.889999,460168
2018-06-15,66.620003,67.160004,64.290001,65.059998,65.059998,512591
2018-06-17,null,null,null,null,null,null
2018-06-18,64.400002,65.980003,63.590000,65.849998,65.849998,218933
2018-06-19,65.820000,65.900002,64.389999,65.070000,65.070000,122646
2018-06-20,65.110001,66.529999,65.010002,66.220001,66.220001,801625
2018-06-21,65.339996,66.220001,64.339996,65.540001,65.540001,760719
2018-06-22,65.930000,69.379997,65.709999,68.580002,68.580002,1136232
2018-06-24,null,null,null,null,null,null
2018-06-25,68.750000,69.440002,67.779999,68.080002,68.080002,816207
2018-06-26,68.209999,70.910004,67.720001,70.529999,70.529999,848537
2018-06-27,70.680000,73.059998,70.559998,72.760002,72.760002,775155
2018-06-28,72.269997,74.029999,72.199997,73.449997,73.449997,717347
2018-06-29,73.330002,74.459999,72.930000,74.150002,74.150002,602399
2018-07-01,null,null,null,null,null,null
2018-07-02,73.620003,74.349998,72.510002,73.940002,73.940002,652167
2018-07-03,null,null,null,null,null,null
2018-07-05,74.349998,74.800003,72.529999,72.940002,72.940002,841632
2018-07-06,73.160004,74.010002,72.139999,73.800003,73.800003,611419
2018-07-08,null,null,null,null,null,null
2018-07-09,73.870003,74.279999,72.989998,73.849998,73.849998,533003
2018-07-10,74.040001,74.699997,73.650002,74.110001,74.110001,586829
2018-07-11,74.199997,74.260002,70.019997,70.379997,70.379997,861726
2018-07-12,70.599998,71.239998,69.230003,70.330002,70.330002,707887
2018-07-13,70.379997,71.660004,69.839996,71.010002,71.010002,530277
2018-07-15,null,null,null,null,null,null
2018-07-16,70.519997,70.870003,67.580002,68.059998,68.059998,530480
2018-07-17,68.029999,68.440002,67.029999,68.080002,68.080002,440727
2018-07-18,67.610001,69.059998,67.040001,68.760002,68.760002,187313
2018-07-19,69.000000,70.169998,67.800003,69.459999,69.459999,103220
2018-07-20,69.389999,71.099998,69.370003,70.459999,70.459999,500967
2018-07-22,null,null,null,null,null,null
2018-07-23,68.169998,69.309998,67.599998,67.889999,67.889999,555915
2018-07-24,67.800003,69.050003,67.559998,68.519997,68.519997,524591
2018-07-25,68.769997,69.699997,68.199997,69.300003,69.300003,622913
2018-07-26,69.379997,69.919998,68.919998,69.610001,69.610001,489059
2018-07-27,69.580002,69.769997,68.260002,68.690002,68.690002,460450
2018-07-29,null,null,null,null,null,null
2018-07-30,69.010002,70.430000,68.800003,70.129997,70.129997,463011
2018-07-31,70.050003,70.220001,67.980003,68.760002,68.760002,519070
2018-08-01,68.430000,68.519997,67.309998,67.660004,67.660004,576561
2018-08-02,67.860001,69.360001,66.919998,68.959999,68.959999,531071
2018-08-03,68.989998,69.239998,67.870003,68.489998,68.489998,476615
2018-08-05,null,null,null,null,null,null
2018-08-06,68.650002,69.919998,68.500000,69.010002,69.010002,495605
2018-08-07,68.900002,69.830002,68.809998,69.169998,69.169998,485027
2018-08-08,69.089996,69.370003,66.320000,66.940002,66.940002,760313
2018-08-09,66.790001,67.410004,66.489998,66.809998,66.809998,509401
2018-08-10,66.739998,67.870003,66.139999,67.629997,67.629997,524490
2018-08-12,null,null,null,null,null,null
2018-08-13,67.779999,67.949997,65.709999,67.199997,67.199997,578219
2018-08-14,67.419998,68.370003,66.580002,67.040001,67.040001,538484
2018-08-15,66.620003,66.900002,64.510002,65.010002,65.010002,573473
2018-08-16,64.949997,65.519997,64.430000,65.459999,65.459999,383380
2018-08-17,65.470001,66.389999,65.300003,65.910004,65.910004,171403
2018-08-19,null,null,null,null,null,null
2018-08-20,65.910004,66.680000,65.589996,66.430000,66.430000,112709
2018-08-21,66.620003,68.099998,66.519997,67.349998,67.349998,437164
2018-08-22,66.080002,68.150002,65.980003,67.860001,67.860001,581899
2018-08-23,68.070000,68.120003,67.320000,67.830002,67.830002,450690
2018-08-24,67.900002,69.309998,67.779999,68.720001,68.720001,517796
2018-08-26,null,null,null,null,null,null
2018-08-27,68.570000,68.970001,68.339996,68.870003,68.870003,332612
2018-08-28,68.930000,69.199997,68.209999,68.529999,68.529999,426833
2018-08-29,68.540001,69.760002,68.370003,69.510002,69.510002,497095
2018-08-30,69.709999,70.500000,69.550003,70.250000,70.250000,445584
2018-08-31,70.059998,70.360001,69.639999,69.800003,69.800003,419739
2018-09-02,null,null,null,null,null,null
2018-09-04,70.120003,71.400002,69.080002,69.870003,69.870003,785981
2018-09-05,69.430000,69.589996,68.559998,68.720001,68.720001,542104
2018-09-06,68.639999,69.019997,67.000000,67.769997,67.769997,633824
2018-09-07,67.879997,68.080002,66.860001,67.750000,67.750000,530895
2018-09-09,null,null,null,null,null,null
2018-09-10,67.820000,68.519997,67.330002,67.540001,67.540001,571174
2018-09-11,67.529999,70.010002,67.480003,69.250000,69.250000,676869
2018-09-12,69.889999,71.260002,69.500000,70.370003,70.370003,800543
2018-09-13,70.239998,70.279999,68.349998,68.589996,68.589996,684937
2018-09-14,68.790001,69.910004,67.940002,68.989998,68.989998,611075
2018-09-16,null,null,null,null,null,null
2018-09-17,68.930000,69.720001,68.529999,68.910004,68.910004,422294
2018-09-18,68.800003,70.419998,68.529999,69.849998,69.849998,234202
2018-09-19,69.709999,71.500000,69.650002,71.120003,71.120003,125208
2018-09-20,71.389999,71.809998,70.730003,70.800003,70.800003,607520
2018-09-21,70.199997,71.800003,69.980003,70.779999,70.779999,855943
2018-09-23,null,null,null,null,null,null
2018-09-24,71.139999,72.739998,71.139999,72.080002,72.080002,576894
2018-09-25,72.250000,72.779999,71.889999,72.279999,72.279999,551280
2018-09-26,72.089996,72.379997,71.470001,71.570000,71.570000,464463
2018-09-27,72.010002,72.599998,71.709999,72.120003,72.120003,454549
2018-09-28,72.180000,73.730003,71.879997,73.250000,73.250000,544047
2018-09-30,null,null,null,null,null,null
2018-10-01,73.290001,75.769997,72.949997,75.300003,75.300003,601451
2018-10-02,75.419998,75.910004,74.930000,75.230003,75.230003,463615
2018-10-03,75.120003,76.900002,74.300003,76.410004,76.410004,698817
2018-10-04,76.180000,76.470001,73.879997,74.330002,74.330002,687949
2018-10-05,74.669998,75.220001,73.839996,74.339996,74.339996,613218
2018-10-07,null,null,null,null,null,null
2018-10-08,74.400002,74.580002,73.070000,74.290001,74.290001,554938
2018-10-09,74.209999,75.279999,74.000000,74.959999,74.959999,623537
2018-10-10,74.660004,75.080002,72.379997,73.169998,73.169998,652737
2018-10-11,72.680000,72.760002,70.510002,70.970001,70.970001,783962
2018-10-12,70.989998,72.010002,70.639999,71.339996,71.339996,626668
2018-10-14,null,null,null,null,null,null
2018-10-15,71.849998,72.699997,70.849998,71.779999,71.779999,568610
2018-10-16,71.720001,72.290001,71.019997,71.919998,71.919998,535003
2018-10-17,72.169998,72.430000,69.430000,69.750000,69.750000,651584
2018-10-18,70.029999,70.029999,68.470001,68.650002,68.650002,215337
2018-10-19,68.680000,69.769997,68.559998,69.120003,69.120003,108311
2018-10-21,null,null,null,null,null,null
2018-10-22,69.410004,69.650002,68.269997,69.169998,69.169998,513770
2018-10-23,69.550003,69.660004,65.739998,66.430000,66.430000,853265
2018-10-24,66.169998,67.720001,66.050003,66.820000,66.820000,775963
2018-10-25,66.360001,67.650002,65.989998,67.330002,67.330002,573096
2018-10-26,66.949997,67.879997,66.199997,67.589996,67.589996,595211
2018-10-28,null,null,null,null,null,null
2018-10-29,67.550003,67.949997,66.290001,67.040001,67.040001,477487
2018-10-30,66.680000,67.260002,65.330002,66.180000,66.180000,680441
2018-10-31,66.320000,67.000000,64.809998,65.309998,65.309998,666487
2018-11-01,64.879997,65.389999,63.110001,63.689999,63.689999,790286
2018-11-02,63.500000,63.950001,62.630001,63.139999,63.139999,708906
2018-11-04,null,null,null,null,null,null
2018-11-05,62.990002,64.139999,62.520000,63.099998,63.099998,609129
2018-11-06,62.700001,63.320000,61.310001,62.209999,62.209999,761240
2018-11-07,61.740002,63.180000,61.200001,61.669998,61.669998,866628
2018-11-08,61.639999,62.419998,60.400002,60.669998,60.669998,764546
2018-11-09,60.750000,60.790001,59.259998,60.189999,60.189999,821729
2018-11-11,null,null,null,null,null,null
2018-11-12,60.700001,61.279999,58.680000,59.930000,59.930000,806219
2018-11-13,58.880001,59.349998,54.750000,55.689999,55.689999,1095643
2018-11-14,55.270000,57.369999,55.130001,56.250000,56.250000,844696
2018-11-15,56.020000,57.259998,55.590000,56.459999,56.459999,256499
2018-11-16,56.580002,57.959999,55.889999,56.459999,56.459999,159001
2018-11-18,null,null,null,null,null,null
2018-11-19,56.720001,57.330002,55.080002,56.759998,56.759998,699684
2018-11-20,57.389999,57.439999,52.770000,53.430000,53.430000,983120
2018-11-21,53.389999,55.860001,53.389999,54.630001,54.630001,734277
2018-11-23,null,null,null,null,null,null
2018-11-25,null,null,null,null,null,null
2018-11-26,50.619999,52.250000,50.099998,51.630001,51.630001,663108
2018-11-27,51.540001,52.380001,50.299999,51.560001,51.560001,764010
2018-11-28,52.090000,52.560001,50.060001,50.290001,50.290001,831688
2018-11-29,50.310001,52.200001,49.410000,51.450001,51.450001,812721
2018-11-30,51.270000,51.790001,49.650002,50.930000,50.930000,796714
2018-12-02,null,null,null,null,null,null
2018-12-03,52.450001,53.849998,52.029999,52.950001,52.950001,758010
2018-12-04,53.130001,54.549999,52.430000,53.250000,53.250000,738130
2018-12-06,52.930000,53.299999,50.080002,51.490002,51.490002,987266
2018-12-07,51.759998,54.220001,50.599998,52.610001,52.610001,987717
2018-12-09,null,null,null,null,null,null
2018-12-10,52.029999,52.810001,50.529999,51.000000,51.000000,733225
2018-12-11,50.889999,52.430000,50.700001,51.650002,51.650002,665262
2018-12-12,51.950001,52.880001,50.939999,51.150002,51.150002,730810
2018-12-13,51.200001,53.270000,50.349998,52.580002,52.580002,733627
2018-12-14,52.830002,52.950001,50.840000,51.200001,51.200001,526839
2018-12-16,null,null,null,null,null,null
2018-12-17,51.250000,51.869999,49.009998,49.880001,49.880001,211257
2018-12-18,49.160000,49.590000,45.790001,46.240002,46.240002,120101
2018-12-19,45.930000,48.000000,45.930000,47.200001,47.200001,817721
2018-12-20,47.389999,47.509998,45.669998,45.880001,45.880001,794130
2018-12-21,46.250000,46.770000,45.130001,45.590000,45.590000,694003
2018-12-23,null,null,null,null,null,null
2018-12-24,null,null,null,null,null,null
2018-12-26,42.849998,47.000000,42.520000,46.220001,46.220001,698408
2018-12-27,46.580002,46.700001,44.369999,44.610001,44.610001,665590
2018-12-28,45.439999,46.220001,44.419998,45.330002,45.330002,564385
2018-12-30,null,null,null,null,null,null
2018-12-31,45.220001,46.529999,44.730000,45.410000,45.410000,476970
2019-01-02,45.799999,47.779999,44.349998,46.540001,46.540001,850480
2019-01-03,46.259998,47.490002,45.349998,47.090000,47.090000,788718
2019-01-04,46.900002,49.220001,46.650002,47.959999,47.959999,817277
2019-01-06,null,null,null,null,null,null
2019-01-07,48.299999,49.790001,48.110001,48.520000,48.520000,819939
2019-01-08,48.730000,49.950001,48.310001,49.779999,49.779999,765981
2019-01-09,49.799999,52.580002,49.709999,52.360001,52.360001,891922
2019-01-10,52.180000,52.779999,51.369999,52.590000,52.590000,821782
2019-01-11,52.279999,53.310001,51.180000,51.590000,51.590000,812339
2019-01-13,null,null,null,null,null,null
2019-01-14,51.730000,52.110001,50.380001,50.509998,50.509998,791527
2019-01-15,50.779999,52.299999,50.639999,52.110001,52.110001,664183
2019-01-16,52.000000,52.520000,51.259998,52.310001,52.310001,694182
2019-01-17,52.299999,52.580002,50.980000,52.070000,52.070000,288560
2019-01-18,52.230000,53.919998,52.090000,53.799999,53.799999,193099
2019-01-20,null,null,null,null,null,null
2019-01-22,53.730000,54.240002,51.799999,52.570000,52.570000,951158
2019-01-23,52.950001,53.639999,51.860001,52.619999,52.619999,702866
2019-01-24,52.450001,53.470001,52.070000,53.130001,53.130001,714415
2019-01-25,53.169998,53.939999,52.910000,53.689999,53.689999,593385
2019-01-27,null,null,null,null,null,null
2019-01-28,53.560001,53.639999,51.330002,51.990002,51.990002,650667
2019-01-29,52.119999,53.930000,51.840000,53.310001,53.310001,660527
2019-01-30,53.240002,54.930000,53.090000,54.230000,54.230000,731312
2019-01-31,54.279999,55.369999,53.619999,53.790001,53.790001,718650
2019-02-01,54.009998,55.660000,53.369999,55.259998,55.259998,689566
2019-02-03,null,null,null,null,null,null
2019-02-04,55.320000,55.750000,53.290001,54.560001,54.560001,622472
2019-02-05,54.860001,55.209999,53.470001,53.660000,53.660000,609756
2019-02-06,53.730000,54.299999,52.860001,54.009998,54.009998,606720
2019-02-07,53.939999,54.209999,51.799999,52.639999,52.639999,749010
2019-02-08,52.590000,52.990002,52.080002,52.720001,52.720001,621003
2019-02-10,null,null,null,null,null,null
2019-02-11,52.660000,52.779999,51.230000,52.410000,52.410000,750242
2019-02-12,52.470001,54.049999,52.290001,53.099998,53.099998,708312
2019-02-13,53.349998,54.599998,53.270000,53.900002,53.900002,706552
2019-02-14,53.959999,54.680000,53.080002,54.410000,54.410000,623546
2019-02-15,54.480000,55.869999,54.240002,55.590000,55.590000,276907
2019-02-17,null,null,null,null,null,null
2019-02-19,55.779999,56.330002,55.290001,56.090000,56.090000,153728
2019-02-20,55.939999,57.549999,55.480000,56.919998,56.919998,685111
2019-02-21,57.240002,57.610001,56.639999,56.959999,56.959999,546202
2019-02-22,56.840000,57.810001,56.709999,57.259998,57.259998,513439
2019-02-24,null,null,null,null,null,null
2019-02-25,57.169998,57.529999,55.080002,55.480000,55.480000,723012
2019-02-26,55.459999,56.080002,55.020000,55.500000,55.500000,538919
2019-02-27,55.950001,57.389999,55.720001,56.939999,56.939999,577227
2019-02-28,57.000000,57.430000,56.430000,57.220001,57.220001,496678
2019-03-01,57.220001,57.880001,55.570000,55.799999,55.799999,684186
2019-03-03,null,null,null,null,null,null
2019-03-04,55.830002,57.000000,55.810001,56.590000,56.590000,549396
2019-03-05,56.450001,57.189999,56.090000,56.560001,56.560001,538399
2019-03-06,56.279999,56.400002,55.419998,56.220001,56.220001,637677
2019-03-07,56.200001,56.990002,56.080002,56.660000,56.660000,628824
2019-03-08,56.430000,56.509998,54.520000,56.070000,56.070000,747358
2019-03-10,null,null,null,null,null,null
2019-03-11,56.070000,57.009998,55.959999,56.790001,56.790001,597156
2019-03-12,56.759998,57.549999,56.740002,56.869999,56.869999,652798
2019-03-13,57.090000,58.480000,57.009998,58.259998,58.259998,610616
2019-03-14,58.349998,58.740002,58.000000,58.610001,58.610001,567604
2019-03-15,58.509998,58.950001,57.740002,58.520000,58.520000,507393
2019-03-17,null,null,null,null,null,null
2019-03-18,58.450001,59.230000,58.049999,59.090000,59.090000,157241
2019-03-19,59.009998,59.570000,58.619999,59.029999,59.029999,114822
2019-03-20,59.020000,60.119999,58.389999,59.830002,59.830002,786342
2019-03-21,59.990002,60.389999,59.660000,59.980000,59.980000,655380
2019-03-22,59.869999,60.070000,58.279999,59.040001,59.040001,738840
2019-03-24,null,null,null,null,null,null
2019-03-25,58.980000,59.349998,58.169998,58.820000,58.820000,705399
2019-03-26,59.119999,60.380001,59.040001,59.939999,59.939999,685988
2019-03-27,60.029999,60.220001,58.810001,59.410000,59.410000,732150
2019-03-28,59.400002,59.560001,58.200001,59.299999,59.299999,712209
2019-03-29,59.529999,60.730000,59.410000,60.139999,60.139999,705559
2019-03-31,null,null,null,null,null,null
2019-04-01,60.240002,61.799999,60.130001,61.590000,61.590000,670808
2019-04-02,61.810001,62.750000,61.599998,62.580002,62.580002,793227
2019-04-03,62.639999,62.990002,62.049999,62.459999,62.459999,799672
2019-04-04,62.500000,62.770000,61.889999,62.099998,62.099998,684973
2019-04-05,62.180000,63.340000,61.820000,63.080002,63.080002,686862
2019-04-07,null,null,null,null,null,null
2019-04-08,63.330002,64.480003,63.130001,64.400002,64.400002,895767
2019-04-09,64.400002,64.790001,63.680000,63.980000,63.980000,790677
2019-04-10,64.220001,64.699997,64.050003,64.610001,64.610001,722216
2019-04-11,64.480003,64.489998,63.310001,63.580002,63.580002,760504
2019-04-12,63.709999,64.650002,63.660000,63.889999,63.889999,625588
2019-04-14,null,null,null,null,null,null
2019-04-15,63.759998,63.840000,63.029999,63.400002,63.400002,555858
2019-04-16,63.570000,64.370003,62.990002,64.050003,64.050003,547469
2019-04-17,64.320000,64.610001,63.660000,63.759998,63.759998,235376
2019-04-18,63.750000,64.160004,63.459999,64.000000,64.000000,148238
2019-04-21,null,null,null,null,null,null
2019-04-22,64.000000,65.919998,64.000000,65.699997,65.699997,763527
2019-04-23,65.750000,66.599998,65.580002,66.300003,66.300003,700598
2019-04-24,66.169998,66.430000,65.660004,65.889999,65.889999,678386
2019-04-25,65.809998,66.279999,64.900002,65.209999,65.209999,603001
2019-04-26,65.129997,65.180000,62.279999,63.299999,63.299999,1000836
2019-04-28,null,null,null,null,null,null
2019-04-29,62.950001,63.689999,62.459999,63.500000,63.500000,654076
2019-04-30,63.580002,64.750000,63.299999,63.910000,63.910000,750494
2019-05-01,63.400002,63.930000,62.770000,63.599998,63.599998,676872
2019-05-02,63.610001,63.680000,60.950001,61.810001,61.810001,914661
2019-05-03,61.549999,62.520000,61.299999,61.939999,61.939999,646866
2019-05-05,null,null,null,null,null,null
2019-05-06,61.430000,62.950001,60.040001,62.250000,62.250000,768810
2019-05-07,62.169998,62.490002,60.660000,61.400002,61.400002,842810
2019-05-08,61.439999,62.369999,61.070000,62.119999,62.119999,791769
2019-05-09,62.020000,62.209999,60.919998,61.700001,61.700001,769583
2019-05-10,61.639999,62.490002,61.419998,61.660000,61.660000,786494
2019-05-12,null,null,null,null,null,null
2019-05-13,61.650002,63.330002,60.639999,61.040001,61.040001,1003106
2019-05-14,60.860001,62.110001,60.689999,61.779999,61.779999,751668
2019-05-15,61.369999,62.340000,60.849998,62.020000,62.020000,723001
2019-05-16,62.119999,63.480000,62.080002,62.869999,62.869999,545679
2019-05-17,63.119999,63.639999,62.520000,62.759998,62.759998,215802
2019-05-19,null,null,null,null,null,null
2019-05-20,63.529999,63.810001,62.450001,63.099998,63.099998,131888
2019-05-21,63.279999,63.599998,62.750000,62.990002,62.990002,641680
2019-05-22,62.639999,62.779999,61.029999,61.419998,61.419998,766728
2019-05-23,61.270000,61.290001,57.330002,57.910000,57.910000,1108052
2019-05-24,58.209999,59.099998,57.500000,58.630001,58.630001,758099
2019-05-26,null,null,null,null,null,null
2019-05-28,58.939999,59.570000,58.130001,59.139999,59.139999,1020323
2019-05-29,59.070000,59.139999,56.880001,58.810001,58.810001,1124959
2019-05-30,59.119999,59.700001,56.330002,56.590000,56.590000,842281
2019-05-31,56.459999,56.610001,53.049999,53.500000,53.500000,1031488
2019-06-02,null,null,null,null,null,null
2019-06-03,53.419998,54.630001,52.110001,53.250000,53.250000,984308
2019-06-04,52.889999,53.779999,52.430000,53.480000,53.480000,831625
2019-06-05,52.860001,53.410000,50.599998,51.680000,51.680000,943186
2019-06-06,51.660000,53.299999,51.169998,52.590000,52.590000,790067
2019-06-07,53.099998,54.320000,52.619999,53.990002,53.990002,828133
2019-06-09,null,null,null,null,null,null
2019-06-10,54.240002,54.840000,53.049999,53.259998,53.259998,687146
2019-06-11,53.430000,54.040001,52.910000,53.270000,53.270000,642940
2019-06-12,53.040001,53.049999,50.720001,51.139999,51.139999,786105
2019-06-13,51.070000,53.450001,50.919998,52.279999,52.279999,945024
2019-06-14,52.180000,52.980000,51.700001,52.509998,52.509998,574229
2019-06-16,null,null,null,null,null,null
2019-06-17,52.500000,52.740002,51.580002,51.930000,51.930000,397868
2019-06-18,51.950001,54.310001,51.500000,53.900002,53.900002,181640
2019-06-19,54.090000,54.419998,53.279999,53.759998,53.759998,122838
2019-06-20,54.119999,57.020000,54.110001,56.650002,56.650002,854514
2019-06-21,57.259998,57.980000,56.660000,57.430000,57.430000,676047
2019-06-23,null,null,null,null,null,null
2019-06-24,57.720001,58.220001,56.750000,57.900002,57.900002,597164
2019-06-25,57.740002,58.840000,57.200001,57.830002,57.830002,673140
2019-06-26,58.840000,59.930000,58.650002,59.380001,59.380001,686817
2019-06-27,59.270000,59.730000,58.610001,59.430000,59.430000,531405
2019-06-28,59.220001,59.799999,57.750000,58.470001,58.470001,556101
2019-06-30,null,null,null,null,null,null
2019-07-01,59.270000,60.279999,58.340000,59.090000,59.090000,674887
2019-07-02,59.139999,59.430000,56.090000,56.250000,56.250000,878938
2019-07-03,null,null,null,null,null,null
2019-07-05,57.380001,57.820000,56.290001,57.509998,57.509998,698015
2019-07-07,null,null,null,null,null,null
2019-07-08,57.770000,58.459999,57.299999,57.660000,57.660000,540861
2019-07-09,57.560001,59.099998,57.290001,57.830002,57.830002,551872
2019-07-10,58.400002,60.529999,58.349998,60.430000,60.430000,690656
2019-07-11,60.439999,60.939999,60.139999,60.200001,60.200001,573019
2019-07-12,60.459999,60.740002,59.930000,60.209999,60.209999,469029
2019-07-14,null,null,null,null,null,null
2019-07-15,60.250000,60.919998,59.200001,59.580002,59.580002,566818
2019-07-16,59.259998,60.060001,57.070000,57.619999,57.619999,712540
2019-07-17,57.520000,58.360001,56.209999,56.779999,56.779999,504432
2019-07-18,56.599998,57.320000,54.720001,55.299999,55.299999,215361
2019-07-19,55.720001,56.360001,54.990002,55.630001,55.630001,105217
2019-07-21,null,null,null,null,null,null
2019-07-22,56.220001,56.840000,55.720001,56.220001,56.220001,619483
2019-07-23,56.169998,57.470001,55.740002,56.770000,56.770000,521876
2019-07-24,57.230000,57.639999,55.330002,55.880001,55.880001,745248
2019-07-25,55.900002,56.990002,55.810001,56.020000,56.020000,559282
2019-07-26,55.930000,56.570000,55.680000,56.200001,56.200001,476785
2019-07-28,null,null,null,null,null,null
2019-07-29,56.200001,57.099998,55.810001,56.869999,56.869999,529742
2019-07-30,57.070000,58.470001,56.959999,58.049999,58.049999,547401
2019-07-31,58.340000,58.820000,57.810001,58.580002,58.580002,614001
2019-08-01,57.849998,57.990002,53.590000,53.950001,53.950001,886748
2019-08-02,54.540001,56.049999,54.150002,55.660000,55.660000,739810
2019-08-04,null,null,null,null,null,null
2019-08-05,55.380001,55.610001,54.220001,54.689999,54.689999,823844
2019-08-06,54.950001,55.419998,53.290001,53.630001,53.630001,682794
2019-08-07,53.419998,53.770000,50.520000,51.090000,51.090000,1063214
2019-08-08,52.330002,53.060001,51.939999,52.540001,52.540001,724762
2019-08-09,52.880001,54.919998,52.369999,54.500000,54.500000,726386
2019-08-11,null,null,null,null,null,null
2019-08-12,54.320000,55.180000,53.540001,54.930000,54.930000,611027
2019-08-13,54.730000,57.470001,54.209999,57.099998,57.099998,783486
2019-08-14,56.740002,56.849998,53.970001,55.230000,55.230000,718293
2019-08-15,54.900002,55.330002,53.770000,54.470001,54.470001,527866
2019-08-16,54.740002,55.669998,54.259998,54.869999,54.869999,168345
2019-08-18,null,null,null,null,null,null
2019-08-19,54.959999,56.410000,54.840000,56.209999,56.209999,113571
2019-08-20,56.099998,56.599998,55.279999,56.340000,56.340000,659258
2019-08-21,56.049999,57.130001,55.549999,55.680000,55.680000,704035
2019-08-22,55.939999,56.459999,54.849998,55.349998,55.349998,621573
2019-08-23,55.349998,55.599998,53.240002,54.169998,54.169998,807151
2019-08-25,null,null,null,null,null,null
2019-08-26,53.250000,55.259998,52.959999,53.639999,53.639999,679022
2019-08-27,53.759998,55.720001,53.689999,54.930000,54.930000,596624
2019-08-28,55.709999,56.750000,55.340000,55.779999,55.779999,674048
2019-08-29,55.880001,56.889999,55.430000,56.709999,56.709999,630760
2019-08-30,56.630001,56.720001,54.549999,55.099998,55.099998,708268
2019-09-01,null,null,null,null,null,null
2019-09-03,55.000000,55.240002,52.840000,53.939999,53.939999,970804
2019-09-04,53.919998,56.580002,53.840000,56.259998,56.259998,682298
2019-09-05,55.950001,57.759998,55.750000,56.299999,56.299999,712466
2019-09-06,56.189999,56.950001,54.830002,56.520000,56.520000,714294
2019-09-08,null,null,null,null,null,null
2019-09-09,56.799999,58.160000,56.580002,57.849998,57.849998,646993
2019-09-10,58.029999,58.759998,57.200001,57.400002,57.400002,755472
2019-09-11,57.889999,58.299999,55.610001,55.750000,55.750000,858772
2019-09-12,55.930000,56.340000,54.000000,55.090000,55.090000,845977
2019-09-13,55.150002,55.680000,54.439999,54.849998,54.849998,599470
2019-09-15,null,null,null,null,null,null
2019-09-16,61.480000,63.380001,58.770000,62.900002,62.900002,1404916
2019-09-17,61.959999,62.590000,58.459999,59.340000,59.340000,993237
2019-09-18,58.810001,59.430000,57.669998,58.110001,58.110001,216961
2019-09-19,58.200001,59.540001,58.009998,58.130001,58.130001,112327
2019-09-20,58.650002,59.099998,57.790001,58.090000,58.090000,576019
2019-09-22,null,null,null,null,null,null
2019-09-23,59.250000,59.389999,57.369999,58.639999,58.639999,526785
2019-09-24,58.439999,58.490002,56.689999,57.290001,57.290001,591529
2019-09-25,56.700001,57.020000,55.549999,56.490002,56.490002,563550
2019-09-26,56.689999,56.840000,55.410000,56.410000,56.410000,599653
2019-09-27,56.509998,56.759998,54.750000,55.910000,55.910000,712966
2019-09-29,null,null,null,null,null,null
2019-09-30,56.540001,56.570000,53.980000,54.070000,54.070000,532522
2019-10-01,54.279999,54.840000,53.049999,53.619999,53.619999,589176
2019-10-02,54.000000,54.419998,52.169998,52.639999,52.639999,590306
2019-10-03,52.470001,52.910000,50.990002,52.450001,52.450001,642466
2019-10-04,52.290001,53.349998,52.040001,52.810001,52.810001,541104
2019-10-06,null,null,null,null,null,null
2019-10-07,52.689999,54.060001,52.590000,52.750000,52.750000,549019
2019-10-08,52.810001,53.270000,51.810001,52.630001,52.630001,658324
2019-10-09,52.570000,53.740002,52.310001,52.590000,52.590000,632666
2019-10-10,52.689999,53.970001,51.380001,53.549999,53.549999,613944
2019-10-11,53.880001,54.930000,53.639999,54.700001,54.700001,467643
2019-10-13,null,null,null,null,null,null
2019-10-14,54.900002,54.900002,52.770000,53.590000,53.590000,467643
2019-10-15,53.509998,53.790001,52.389999,52.810001,52.810001,511249
2019-10-16,52.919998,53.740002,52.520000,53.360001,53.360001,451643
2019-10-17,52.990002,54.160000,52.619999,53.930000,53.930000,418422
2019-10-18,54.090000,54.619999,53.349998,53.779999,53.779999,174477
2019-10-20,null,null,null,null,null,null
2019-10-21,53.709999,54.029999,52.709999,53.310001,53.310001,95979
2019-10-22,53.389999,54.619999,53.099998,54.160000,54.160000,506573
2019-10-23,54.299999,56.070000,53.619999,55.970001,55.970001,620202
2019-10-24,55.900002,56.509998,55.410000,56.230000,56.230000,480764
2019-10-25,56.070000,56.740002,55.599998,56.660000,56.660000,445020
2019-10-27,null,null,null,null,null,null
2019-10-28,56.650002,56.919998,55.580002,55.810001,55.810001,437020
2019-10-29,55.799999,55.910000,54.610001,55.540001,55.540001,521457
2019-10-30,55.529999,55.730000,54.419998,55.060001,55.060001,659328
2019-10-31,54.900002,55.590000,53.709999,54.180000,54.180000,677419
2019-11-01,54.150002,56.330002,54.070000,56.200001,56.200001,538117
2019-11-03,null,null,null,null,null,null
2019-11-04,56.410000,57.430000,55.830002,56.540001,56.540001,580350
2019-11-05,56.560001,57.500000,56.299999,57.230000,57.230000,435319
2019-11-06,57.259998,57.849998,56.110001,56.349998,56.349998,623258
2019-11-07,56.349998,57.880001,56.270000,57.150002,57.150002,678165
2019-11-08,57.080002,57.480000,55.759998,57.240002,57.240002,636941
2019-11-10,null,null,null,null,null,null
2019-11-11,57.400002,57.400002,56.250000,56.860001,56.860001,498981
2019-11-12,56.889999,57.549999,56.540001,56.799999,56.799999,586568
2019-11-13,56.790001,57.529999,56.200001,57.119999,57.119999,547635
2019-11-14,57.389999,57.790001,56.630001,56.770000,56.770000,516832
2019-11-15,56.910000,57.970001,56.430000,57.720001,57.720001,375993
2019-11-17,null,null,null,null,null,null
2019-11-18,57.880001,58.090000,56.549999,57.049999,57.049999,159328
2019-11-19,56.900002,57.110001,55.040001,55.209999,55.209999,121214
2019-11-20,55.160000,57.250000,54.759998,57.110001,57.110001,674891
2019-11-21,57.000000,58.669998,56.599998,58.580002,58.580002,593533
2019-11-22,58.310001,58.740002,57.500000,57.770000,57.770000,508244
2019-11-24,null,null,null,null,null,null
2019-11-25,57.919998,58.150002,57.209999,58.009998,58.009998,420642
2019-11-26,57.919998,58.560001,57.759998,58.410000,58.410000,443816
2019-11-27,58.270000,58.680000,57.509998,58.110001,58.110001,454256
2019-11-29,null,null,null,null,null,null
2019-12-01,null,null,null,null,null,null
2019-12-02,55.470001,56.669998,55.419998,55.959999,55.959999,616423
2019-12-03,55.959999,56.799999,55.349998,56.099998,56.099998,560554
2019-12-04,56.430000,58.660000,56.279999,58.430000,58.430000,760541
2019-12-05,58.360001,59.119999,58.099998,58.430000,58.430000,649461
2019-12-06,58.320000,59.849998,57.700001,59.200001,59.200001,679609
2019-12-08,null,null,null,null,null,null
2019-12-09,59.110001,59.250000,58.230000,59.020000,59.020000,511561
2019-12-10,58.919998,59.520000,58.520000,59.240002,59.240002,566822
2019-12-11,59.060001,59.220001,58.110001,58.759998,58.759998,589650
2019-12-12,58.880001,59.720001,58.750000,59.180000,59.180000,530851
2019-12-13,59.360001,60.480000,59.270000,60.070000,60.070000,512288
2019-12-15,null,null,null,null,null,null
2019-12-16,59.869999,60.340000,59.709999,60.209999,60.209999,347395
2019-12-17,60.230000,61.060001,60.029999,60.939999,60.939999,163744
2019-12-18,60.549999,61.180000,60.320000,60.930000,60.930000,131071
2019-12-19,60.860001,61.470001,60.790001,61.220001,61.220001,426341
2019-12-20,61.110001,61.200001,60.020000,60.439999,60.439999,552517
2019-12-22,null,null,null,null,null,null
2019-12-23,60.410000,60.770000,60.099998,60.520000,60.520000,314711
2019-12-24,null,null,null,null,null,null
2019-12-26,61.200001,61.830002,61.060001,61.680000,61.680000,265091
2019-12-27,61.730000,61.970001,61.240002,61.720001,61.720001,351899
2019-12-29,null,null,null,null,null,null
2019-12-30,61.709999,62.340000,61.090000,61.680000,61.680000,427149
2019-12-31,61.680000,61.880001,60.630001,61.060001,61.060001,494535
2020-01-02,61.599998,61.599998,60.639999,61.180000,61.180000,486873
2020-01-03,61.180000,64.089996,61.130001,63.049999,63.049999,885861
2020-01-05,null,null,null,null,null,null
2020-01-06,63.709999,64.720001,62.639999,63.270000,63.270000,724236
2020-01-07,62.910000,63.150002,62.110001,62.700001,62.700001,582649
2020-01-08,62.840000,65.650002,59.150002,59.610001,59.610001,1205710
2020-01-09,59.990002,60.310001,58.660000,59.560001,59.560001,750933
2020-01-10,59.610001,59.779999,58.849998,59.040001,59.040001,596186
2020-01-12,null,null,null,null,null,null
2020-01-13,59.040001,59.270000,57.910000,58.080002,58.080002,584002
2020-01-14,58.029999,58.720001,57.720001,58.230000,58.230000,507714
2020-01-15,58.200001,58.360001,57.360001,57.810001,57.810001,433169
2020-01-16,58.099998,58.869999,57.560001,58.520000,58.520000,182871
2020-01-17,58.590000,58.980000,58.270000,58.540001,58.540001,122561
2020-01-19,null,null,null,null,null,null
2020-01-21,59.169998,59.730000,57.680000,58.340000,58.340000,648335
2020-01-22,58.259998,58.380001,56.029999,56.740002,56.740002,620119
2020-01-23,56.110001,56.270000,54.770000,55.590000,55.590000,703995
2020-01-24,55.689999,55.950001,53.849998,54.189999,54.189999,586195
2020-01-26,null,null,null,null,null,null
2020-01-27,53.700001,53.709999,52.130001,53.139999,53.139999,712880
2020-01-28,52.770000,54.060001,52.680000,53.480000,53.480000,633963
2020-01-29,53.970001,54.369999,52.810001,53.330002,53.330002,624979
2020-01-30,53.090000,53.200001,51.660000,52.139999,52.139999,720123
2020-01-31,52.919998,53.360001,50.970001,51.560001,51.560001,827907
2020-02-02,null,null,null,null,null,null
2020-02-03,51.009998,51.970001,49.799999,50.110001,50.110001,876044
2020-02-04,49.939999,51.549999,49.310001,49.610001,49.610001,859357
2020-02-05,49.509998,51.880001,49.470001,50.750000,50.750000,887946
2020-02-06,51.169998,52.200001,50.240002,50.950001,50.950001,750659
2020-02-07,51.110001,51.480000,50.090000,50.320000,50.320000,768345
2020-02-09,null,null,null,null,null,null
2020-02-10,50.119999,50.490002,49.419998,49.570000,49.570000,715894
2020-02-11,49.610001,50.689999,49.580002,49.939999,49.939999,725733
2020-02-12,49.959999,51.730000,49.950001,51.169998,51.169998,795256
2020-02-13,51.720001,51.959999,50.599998,51.419998,51.419998,745400
2020-02-14,51.509998,52.340000,51.320000,52.049999,52.049999,607343
2020-02-16,null,null,null,null,null,null
2020-02-18,52.230000,52.410000,50.880001,52.049999,52.049999,221774
2020-02-19,52.119999,53.660000,51.930000,53.290001,53.290001,113683
2020-02-20,53.500000,54.500000,53.220001,53.779999,53.779999,676179
2020-02-21,53.740002,53.860001,52.549999,53.380001,53.380001,707555
2020-02-23,null,null,null,null,null,null
2020-02-24,52.599998,52.639999,50.450001,51.430000,51.430000,765515
2020-02-25,51.369999,52.020000,49.689999,49.900002,49.900002,764989
2020-02-26,50.080002,50.439999,48.299999,48.730000,48.730000,884482
2020-02-27,48.630001,48.779999,45.880001,47.090000,47.090000,1011915
2020-02-28,46.490002,47.029999,43.849998,44.759998,44.759998,1101659
2020-03-01,null,null,null,null,null,null
2020-03-02,43.700001,47.560001,43.320000,46.750000,46.750000,949471
2020-03-03,47.720001,48.660000,46.470001,47.180000,47.180000,1011933
2020-03-04,46.939999,48.410000,46.650002,46.779999,46.779999,745856
2020-03-05,47.130001,47.570000,45.650002,45.900002,45.900002,704591
2020-03-06,46.090000,46.380001,41.049999,41.279999,41.279999,1276180
2020-03-08,32.869999,33.590000,30.000000,32.500000,32.500000,9423555
2020-03-09,32.869999,34.880001,27.340000,31.129999,31.129999,1774383
2020-03-10,30.370001,35.020000,30.200001,34.360001,34.360001,1064632
2020-03-11,34.619999,36.349998,32.560001,32.980000,32.980000,874646
2020-03-12,33.070000,33.630001,30.020000,31.500000,31.500000,1025036
2020-03-13,30.770000,33.869999,30.330000,31.730000,31.730000,743129
2020-03-15,33.750000,33.750000,29.750000,30.389999,30.389999,3617072
2020-03-16,33.750000,33.750000,28.100000,28.700001,28.700001,698829
2020-03-17,28.690001,30.299999,26.629999,26.950001,26.950001,545820
2020-03-18,26.940001,27.219999,20.059999,20.370001,20.370001,309481
2020-03-19,22.299999,27.709999,21.360001,25.219999,25.219999,136722
2020-03-20,24.730000,27.889999,19.459999,22.430000,22.430000,1133808
2020-03-22,22.520000,23.070000,20.799999,21.350000,21.350000,3444774
2020-03-23,22.520000,24.070000,20.799999,23.360001,23.360001,852951
2020-03-24,23.870001,25.160000,23.090000,24.010000,24.010000,659697
2020-03-25,24.370001,25.240000,22.910000,24.490000,24.490000,618725
2020-03-26,24.250000,24.650000,22.379999,22.600000,22.600000,633877
2020-03-27,23.290001,23.440001,20.879999,21.510000,21.510000,603124
2020-03-29,20.930000,20.930000,19.920000,20.350000,20.350000,3163583
2020-03-30,20.930000,20.930000,19.270000,20.090000,20.090000,758711
2020-03-31,20.230000,21.889999,20.010000,20.480000,20.480000,660082
2020-04-01,20.100000,21.549999,19.900000,20.309999,20.309999,703286
2020-04-02,21.219999,27.389999,20.760000,25.320000,25.320000,1095972
2020-04-03,24.809999,29.129999,23.520000,28.340000,28.340000,1007577
2020-04-05,null,null,null,null,null,null
2020-04-06,26.090000,28.240000,25.280001,26.080000,26.080000,752710
2020-04-07,26.340000,27.240000,23.540001,23.629999,23.629999,797707
2020-04-08,24.299999,26.450001,23.740000,25.090000,25.090000,823554
2020-04-09,26.280001,28.360001,22.570000,22.760000,22.760000,1122149
2020-04-12,24.600000,24.740000,22.030001,23.129999,23.129999,4624660
2020-04-13,24.600000,24.740000,22.030001,22.410000,22.410000,775120
2020-04-14,22.360001,23.080000,19.950001,20.110001,20.110001,785478
2020-04-15,20.719999,20.889999,19.200001,19.870001,19.870001,544797
2020-04-16,20.150000,20.530001,19.420000,19.870001,19.870001,350942
2020-04-17,20.000000,20.219999,17.309999,18.270000,18.270000,240628
2020-04-19,17.480000,17.580000,16.930000,16.990000,16.990000,341851
2020-04-20,17.730000,17.850000,-40.320000,-37.630001,-37.630001,247947
2020-04-21,-14.000000,13.860000,-16.740000,10.010000,10.010000,2288230
2020-04-22,13.120000,16.180000,10.260000,13.780000,13.780000,1235218
2020-04-23,14.200000,18.260000,13.350000,16.500000,16.500000,833584
2020-04-24,16.780001,17.969999,15.640000,16.940001,16.940001,600220
2020-04-26,16.459999,16.790001,16.440001,16.559999,16.559999,906406
2020-04-27,16.840000,16.980000,11.880000,12.780000,12.780000,623201
2020-04-28,12.960000,13.690000,10.070000,12.340000,12.340000,897087
2020-04-29,13.350000,16.780001,12.670000,15.060000,15.060000,554134
2020-04-30,15.640000,19.440001,15.450000,18.840000,18.840000,545344
2020-05-01,19.040001,20.480000,18.070000,19.780001,19.780001,403201
2020-05-03,19.350000,19.530001,18.500000,18.629999,18.629999,1028390
2020-05-04,19.110001,21.420000,18.049999,20.389999,20.389999,311488
2020-05-05,21.240000,25.490000,21.129999,24.559999,24.559999,387240
2020-05-06,25.520000,26.080000,22.580000,23.990000,23.990000,381165
2020-05-07,24.090000,26.740000,22.940001,23.549999,23.549999,310261
2020-05-08,23.350000,24.990000,23.260000,24.740000,24.740000,205181
2020-05-10,24.500000,24.750000,24.129999,24.670000,24.670000,324949
2020-05-11,24.490000,25.580000,23.670000,24.139999,24.139999,179591
2020-05-12,24.490000,26.230000,24.219999,25.780001,25.780001,212335
2020-05-13,25.299999,26.450001,24.790001,25.290001,25.290001,150864
2020-05-14,25.559999,27.959999,25.180000,27.559999,27.559999,160507
2020-05-15,27.639999,29.920000,27.240000,29.430000,29.430000,108016
2020-05-17,29.530001,30.320000,29.530001,30.260000,30.260000,43749
2020-05-18,29.530001,33.320000,29.530001,31.820000,31.820000,89376
2020-05-19,32.830002,33.439999,31.340000,32.500000,32.500000,430823
2020-05-20,31.889999,33.779999,31.559999,33.490002,33.490002,406431
2020-05-21,33.529999,34.660000,33.259998,33.919998,33.919998,372814
2020-05-22,33.950001,34.000000,30.719999,33.250000,33.250000,429036
2020-05-24,33.060001,33.090000,32.790001,32.930000,32.930000,523787
2020-05-26,33.299999,34.810001,32.480000,34.349998,34.349998,466737
2020-05-27,34.139999,34.320000,31.750000,32.810001,32.810001,415246
2020-05-28,32.099998,34.209999,31.139999,33.709999,33.709999,440168
2020-05-29,33.680000,35.770000,32.360001,35.490002,35.490002,443647
2020-05-31,35.209999,35.439999,35.209999,35.270000,35.270000,383306
2020-06-01,35.209999,35.900002,34.270000,35.439999,35.439999,385710
2020-06-02,35.560001,37.060001,35.279999,36.810001,36.810001,343483
2020-06-03,36.860001,38.180000,35.880001,37.290001,37.290001,494253
2020-06-04,36.759998,37.619999,36.380001,37.410000,37.410000,307612
2020-06-05,37.330002,39.680000,37.049999,39.549999,39.549999,396856
2020-06-07,39.410000,40.439999,39.279999,40.360001,40.360001,1673562
2020-06-08,39.410000,40.439999,37.959999,38.189999,38.189999,416639
2020-06-09,38.220001,39.099998,37.070000,38.939999,38.939999,396033
2020-06-10,38.500000,39.910000,37.730000,39.599998,39.599998,385868
2020-06-11,39.090000,39.090000,35.410000,36.340000,36.340000,513912
2020-06-12,36.259998,36.990002,34.480000,36.259998,36.259998,406508
2020-06-14,36.029999,36.119999,35.330002,35.500000,35.500000,843693
2020-06-15,36.029999,37.259998,34.360001,37.119999,37.119999,387546
2020-06-16,37.049999,39.060001,36.380001,38.380001,38.380001,366323
2020-06-17,37.930000,38.750000,37.209999,37.959999,37.959999,239516
2020-06-18,37.740002,38.970001,37.110001,38.840000,38.840000,113384
2020-06-19,38.849998,40.490002,38.400002,39.750000,39.750000,64113
2020-06-21,39.180000,39.770000,39.119999,39.770000,39.770000,252
2020-06-22,39.180000,40.700001,39.119999,40.459999,40.459999,315264
2020-06-23,40.680000,41.630001,39.759998,40.369999,40.369999,368730
2020-06-24,39.990002,40.540001,37.310001,38.009998,38.009998,499490
2020-06-25,38.049999,39.230000,37.080002,38.720001,38.720001,451640
2020-06-26,39.090000,39.349998,37.790001,38.490002,38.490002,356712
2020-06-28,37.959999,38.119999,37.680000,37.849998,37.849998,631650
2020-06-29,37.959999,39.889999,37.500000,39.700001,39.700001,343913
2020-06-30,39.639999,40.080002,38.849998,39.270000,39.270000,370059
2020-07-01,39.840000,40.580002,39.049999,39.820000,39.820000,407170
2020-07-02,39.779999,40.740002,39.459999,40.650002,40.650002,347096
2020-07-05,40.310001,40.529999,40.200001,40.380001,40.380001,267547
2020-07-06,40.380001,41.080002,39.840000,40.630001,40.630001,373236
2020-07-07,40.680000,40.950001,39.900002,40.619999,40.619999,256596
2020-07-08,40.480000,41.080002,40.299999,40.900002,40.900002,286740
2020-07-09,40.869999,40.990002,39.270000,39.619999,39.619999,367386
2020-07-10,39.580002,40.770000,38.540001,40.549999,40.549999,393149
2020-07-12,40.349998,40.529999,39.930000,40.209999,40.209999,616350
2020-07-13,40.349998,40.720001,39.470001,40.099998,40.099998,370715
2020-07-14,39.599998,40.570000,39.070000,40.290001,40.290001,426971
2020-07-15,40.549999,41.259998,40.080002,41.200001,41.200001,352542
2020-07-16,40.970001,41.180000,40.520000,40.750000,40.750000,200101
2020-07-17,40.720001,40.900002,40.020000,40.590000,40.590000,88220
2020-07-19,40.639999,40.650002,40.459999,40.639999,40.639999,6636
2020-07-20,40.639999,40.910000,39.830002,40.810001,40.810001,60179
2020-07-21,40.650002,42.400002,40.639999,41.959999,41.959999,389117
2020-07-22,41.540001,42.029999,41.139999,41.900002,41.900002,333647
2020-07-23,41.950001,42.360001,40.830002,41.070000,41.070000,389412
2020-07-24,41.060001,41.669998,40.660000,41.290001,41.290001,353159
2020-07-26,41.259998,41.380001,40.910000,41.110001,41.110001,467510
2020-07-27,41.259998,41.820000,40.480000,41.599998,41.599998,377714
2020-07-28,41.650002,41.930000,40.849998,41.040001,41.040001,276804
2020-07-29,41.130001,41.570000,40.930000,41.270000,41.270000,295855
2020-07-30,41.320000,41.389999,38.720001,39.919998,39.919998,487325
2020-07-31,40.340000,40.549999,39.660000,40.270000,40.270000,318788
2020-08-02,40.389999,40.430000,39.980000,40.119999,40.119999,314152
2020-08-03,40.389999,41.240002,39.580002,41.009998,41.009998,338326
2020-08-04,40.779999,42.080002,40.139999,41.700001,41.700001,451575
2020-08-05,41.560001,43.520000,41.470001,42.189999,42.189999,491268
2020-08-06,42.189999,42.650002,41.610001,41.950001,41.950001,491268
2020-08-07,41.970001,42.220001,41.060001,41.220001,41.220001,398997
2020-08-09,41.500000,41.700001,41.169998,41.599998,41.599998,431991
2020-08-10,41.500000,42.330002,41.169998,41.939999,41.939999,367796
2020-08-11,41.980000,42.939999,41.480000,41.610001,41.610001,432843
2020-08-12,41.619999,42.900002,41.529999,42.669998,42.669998,397831
2020-08-13,42.570000,42.840000,42.090000,42.240002,42.240002,329507
2020-08-14,42.330002,42.570000,41.619999,42.009998,42.009998,310866
2020-08-16,42.240002,42.419998,42.090000,42.270000,42.270000,338861
2020-08-17,42.240002,42.970001,41.799999,42.889999,42.889999,208429
2020-08-18,42.790001,42.990002,42.110001,42.889999,42.889999,111628
2020-08-19,42.599998,43.029999,42.360001,42.930000,42.930000,81299
2020-08-20,42.740002,42.790001,41.500000,42.580002,42.580002,377070
2020-08-21,42.750000,42.959999,41.459999,42.340000,42.340000,345368
2020-08-23,42.480000,42.700001,42.310001,42.470001,42.470001,649796
2020-08-24,42.480000,42.889999,42.230000,42.619999,42.619999,294731
2020-08-25,42.360001,43.570000,42.310001,43.349998,43.349998,330800
2020-08-26,43.389999,43.779999,43.000000,43.389999,43.389999,262243
2020-08-27,43.450001,43.500000,42.360001,43.040001,43.040001,320968
2020-08-28,42.980000,43.419998,42.689999,42.970001,42.970001,272800
2020-08-30,42.910000,43.060001,42.900002,43.049999,43.049999,132611
2020-08-31,42.910000,43.570000,42.560001,42.610001,42.610001,236877
2020-09-01,42.830002,43.430000,42.720001,42.759998,42.759998,285146
2020-09-02,43.020000,43.209999,41.230000,41.509998,41.509998,421771
2020-09-03,41.630001,41.790001,40.220001,41.369999,41.369999,417634
2020-09-04,41.250000,41.869999,39.349998,39.770000,39.770000,444184
2020-09-06,null,null,null,null,null,null
2020-09-08,39.480000,39.590000,36.130001,36.759998,36.759998,720975
2020-09-09,36.790001,38.450001,36.160000,38.049999,38.049999,455356
2020-09-10,37.799999,38.180000,36.930000,37.299999,37.299999,367555
2020-09-11,37.009998,37.820000,36.669998,37.330002,37.330002,363787
2020-09-13,null,null,null,null,null,null
2020-09-14,37.320000,37.680000,36.820000,37.259998,37.259998,347563
2020-09-15,37.279999,38.570000,37.060001,38.279999,38.279999,348861
2020-09-16,38.349998,40.340000,38.349998,40.160000,40.160000,367612
2020-09-17,40.189999,41.220001,39.419998,40.970001,40.970001,280669
2020-09-18,40.970001,41.490002,40.299999,41.110001,41.110001,85906
2020-09-20,null,null,null,null,null,null
2020-09-21,40.980000,41.270000,38.660000,39.310001,39.310001,66195
2020-09-22,39.630001,40.020000,39.000000,39.599998,39.599998,287807
2020-09-23,39.759998,40.750000,39.259998,39.930000,39.930000,318754
2020-09-24,39.599998,40.369999,39.119999,40.310001,40.310001,269992
2020-09-25,40.150002,40.639999,39.709999,40.250000,40.250000,229025
2020-09-27,null,null,null,null,null,null
2020-09-28,40.070000,40.799999,39.779999,40.599998,40.599998,226425
2020-09-29,40.580002,40.700001,38.410000,39.290001,39.290001,379599
2020-09-30,39.160000,40.369999,38.680000,40.220001,40.220001,340294
2020-10-01,39.900002,40.470001,37.610001,38.720001,38.720001,443442
2020-10-02,38.599998,38.650002,36.630001,37.049999,37.049999,391428
2020-10-04,null,null,null,null,null,null
2020-10-05,37.000000,39.720001,37.000000,39.220001,39.220001,378579
2020-10-06,39.349998,40.860001,39.099998,40.669998,40.669998,400531
2020-10-07,39.830002,40.349998,39.279999,39.950001,39.950001,433065
2020-10-08,39.990002,41.330002,39.759998,41.189999,41.189999,409787
2020-10-09,41.310001,41.470001,40.380001,40.599998,40.599998,331703
2020-10-11,null,null,null,null,null,null
2020-10-12,40.400002,40.450001,39.040001,39.430000,39.430000,322035
2020-10-13,39.529999,40.529999,39.349998,40.200001,40.200001,375470
2020-10-14,40.189999,41.160000,39.820000,41.040001,41.040001,328295
2020-10-15,41.130001,41.290001,39.220001,40.959999,40.959999,248251
2020-10-16,40.880001,41.049999,40.080002,40.880001,40.880001,96488
2020-10-18,null,null,null,null,null,null
2020-10-19,40.689999,41.220001,40.540001,40.830002,40.830002,75335
2020-10-20,40.650002,41.700001,40.250000,41.459999,41.459999,360574
2020-10-21,41.220001,41.590000,39.779999,40.029999,40.029999,366899
2020-10-22,40.040001,41.020000,39.709999,40.639999,40.639999,307494
2020-10-23,40.610001,40.919998,39.570000,39.849998,39.849998,268931
2020-10-25,null,null,null,null,null,null
2020-10-26,39.689999,39.740002,38.279999,38.560001,38.560001,360184
2020-10-27,38.590000,39.830002,38.509998,39.570000,39.570000,339535
2020-10-28,38.970001,39.009998,36.970001,37.389999,37.389999,489954
2020-10-29,37.389999,37.759998,34.919998,36.169998,36.169998,568816
2020-10-30,36.070000,36.599998,35.209999,35.790001,35.790001,388971
2020-11-01,null,null,null,null,null,null
2020-11-02,35.240002,37.150002,33.639999,36.810001,36.810001,489204
2020-11-03,37.029999,38.320000,36.570000,37.660000,37.660000,410611
2020-11-04,38.150002,39.250000,37.259998,39.150002,39.150002,437000
2020-11-05,39.169998,39.349998,38.270000,38.790001,38.790001,298366
2020-11-06,38.540001,38.610001,37.060001,37.139999,37.139999,411026
2020-11-08,null,null,null,null,null,null
2020-11-09,37.340000,41.330002,37.160000,40.290001,40.290001,622921
2020-11-10,39.910000,41.840000,39.410000,41.360001,41.360001,457045
2020-11-11,41.790001,43.060001,41.320000,41.450001,41.450001,443772
2020-11-12,41.470001,42.189999,40.869999,41.119999,41.119999,401031
2020-11-13,40.939999,40.939999,40.060001,40.130001,40.130001,338187
2020-11-15,null,null,null,null,null,null
2020-11-16,40.169998,42.090000,40.150002,41.340000,41.340000,378785
2020-11-17,41.439999,41.689999,40.570000,41.430000,41.430000,243677
2020-11-18,41.349998,42.459999,41.080002,41.820000,41.820000,107013
2020-11-19,41.610001,41.980000,41.080002,41.740002,41.740002,88144
2020-11-20,41.700001,42.320000,41.509998,42.150002,42.150002,276340
2020-11-22,null,null,null,null,null,null
2020-11-23,42.459999,43.360001,42.290001,43.060001,43.060001,276340